{
	"_attachments": {
		"Australia": {
			"content_type": "image/png",
			"digest": "sha1-ttDoKUT9xeNFfg2IMSNY1AKylkg=",
			"length": 9181,
			"revpos": 314,
			"stub": true
		},
		"Canada": {
			"content_type": "image/png",
			"digest": "sha1-KzCwlj9C1TY5DAZNxsF9XuHehDg=",
			"length": 5872,
			"revpos": 317,
			"stub": true
		},
		"EquationEqualsIcon": {
			"content_type": "image/png",
			"digest": "sha1-5Zm9lu17Q13NctuVxG2WT1Z+Dno=",
			"length": 1619,
			"revpos": 321,
			"stub": true
		},
		"EquationExchangeIcon": {
			"content_type": "image/png",
			"digest": "sha1-EqCfQqgr2Pz6dKYnBxvpO6kc0mE=",
			"length": 6481,
			"revpos": 322,
			"stub": true
		},
		"InLocalSchool": {
			"content_type": "image/png",
			"digest": "sha1-HwWHX7kSNUmXxcDvOPLKkEBwtaA=",
			"length": 10445,
			"revpos": 326,
			"stub": true
		},
		"InterestProductsIcon1": {
			"content_type": "image/png",
			"digest": "sha1-2xw519BnMYFRlYHmA8Av2zlIZc8=",
			"length": 8960,
			"revpos": 327,
			"stub": true
		},
		"InterestProductsIcon2": {
			"content_type": "image/png",
			"digest": "sha1-cBKdm3rMi2ngRdMS/x/Nbp5RVfM=",
			"length": 7888,
			"revpos": 328,
			"stub": true
		},
		"InterestProductsIcon3": {
			"content_type": "image/png",
			"digest": "sha1-TDhV4vZQX5hsxxqmk9cw8fuGw54=",
			"length": 6301,
			"revpos": 329,
			"stub": true
		},
		"InterestProductsIcon4": {
			"content_type": "image/png",
			"digest": "sha1-U1AfYH1RuxVAwQ+X0VRpR87RCp4=",
			"length": 9497,
			"revpos": 330,
			"stub": true
		},
		"InterestProductsIcon5": {
			"content_type": "image/png",
			"digest": "sha1-iZ931CgTSVPw5Qya8gHBDE2zNfM=",
			"length": 730,
			"revpos": 331,
			"stub": true
		},
		"UnitedKingdom": {
			"content_type": "image/png",
			"digest": "sha1-coGdpqgDXslgV2oiL12+3hlGyRA=",
			"length": 7646,
			"revpos": 358,
			"stub": true
		},
		"UnitedStates": {
			"content_type": "image/png",
			"digest": "sha1-i9KvQveMb6+WOQu7vVJr6EPBPKI=",
			"length": 8997,
			"revpos": 359,
			"stub": true
		},
		"accumulativeSavingsInvestments": {
			"content_type": "image/png",
			"digest": "sha1-cAYGApaPnkBw9vULnoyVP02SdeA=",
			"length": 8283,
			"revpos": 313,
			"stub": true
		},
		"bank_accounts": {
			"content_type": "image/png",
			"digest": "sha1-3Cke6gVXbmNSCVSqU7EJcC64N+8=",
			"length": 7183,
			"revpos": 315,
			"stub": true
		},
		"bonds": {
			"content_type": "image/png",
			"digest": "sha1-pSU0GmaGeUQIE5SDXA2jcP0XRn8=",
			"length": 7533,
			"revpos": 316,
			"stub": true
		},
		"car": {
			"content_type": "image/png",
			"digest": "sha1-XP3AMqK/ROspUOGw1J9bUmgXZ84=",
			"length": 9006,
			"revpos": 318,
			"stub": true
		},
		"cash": {
			"content_type": "image/png",
			"digest": "sha1-u4UMLmeQeJeWQR+pJOLc7n5fc8s=",
			"length": 7357,
			"revpos": 319,
			"stub": true
		},
		"childEducateIcon": {
			"content_type": "image/png",
			"digest": "sha1-UHP5A/VbbOtM/MH7z03bkTLYWDk=",
			"length": 2108,
			"revpos": 339,
			"stub": true
		},
		"critIllnessIcon": {
			"content_type": "image/png",
			"digest": "sha1-u45G/2pzc+FnnNQL6AhqdukC2DM=",
			"length": 2297,
			"revpos": 341,
			"stub": true
		},
		"disability": {
			"content_type": "image/png",
			"digest": "sha1-AvMfWBwmtVRnmhA7CE+hp9Qq5Is=",
			"length": 135476,
			"revpos": 342,
			"stub": true
		},
		"education": {
			"content_type": "image/png",
			"digest": "sha1-jflDjH86E73DUQ1dJ2G94m+zHms=",
			"length": 12670,
			"revpos": 320,
			"stub": true
		},
		"home": {
			"content_type": "image/png",
			"digest": "sha1-Uwy5l77UqEtrQvJBKen72LSNsXw=",
			"length": 12754,
			"revpos": 323,
			"stub": true
		},
		"imgSelectCritIllness": {
			"content_type": "image/png",
			"digest": "sha1-cxG3YbO79zzv86PX+szY36BcB8Q=",
			"length": 96047,
			"revpos": 363,
			"stub": true
		},
		"imgSelectEducation": {
			"content_type": "image/png",
			"digest": "sha1-Afi7CAULmmdVm1VjQvHkpSnLq0E=",
			"length": 86425,
			"revpos": 365,
			"stub": true
		},
		"imgSelectFinanProtect": {
			"content_type": "image/png",
			"digest": "sha1-JBDpp+piEWoOp80ug1bCUIutqsI=",
			"length": 157806,
			"revpos": 362,
			"stub": true
		},
		"imgSelectOthers": {
			"content_type": "image/png",
			"digest": "sha1-GVOfZJt7juaZ2I4TfQbuc52aUq4=",
			"length": 107282,
			"revpos": 367,
			"stub": true
		},
		"imgSelectRetire": {
			"content_type": "image/png",
			"digest": "sha1-2jFobZ3jHzAeQSvlsjiKirykt6Q=",
			"length": 121288,
			"revpos": 364,
			"stub": true
		},
		"imgSelectSaving": {
			"content_type": "image/png",
			"digest": "sha1-NaeoCCCnjdrjiJrYKFCOmWgB6QM=",
			"length": 103828,
			"revpos": 366,
			"stub": true
		},
		"income": {
			"content_type": "image/png",
			"digest": "sha1-Bx/V92o3CwtwbhKtw9YLe2SVdG4=",
			"length": 2138,
			"revpos": 324,
			"stub": true
		},
		"incomeFromOtherInvestments": {
			"content_type": "image/png",
			"digest": "sha1-iQvXmBXARuz56j/Ah4itKYJlo+M=",
			"length": 3245,
			"revpos": 325,
			"stub": true
		},
		"marry": {
			"content_type": "image/png",
			"digest": "sha1-n9PpUYhDiFq2PmJ8F7dH88X97k4=",
			"length": 6685,
			"revpos": 332,
			"stub": true
		},
		"money_markets": {
			"content_type": "image/png",
			"digest": "sha1-lS162evx2xSZsfUi9ACj4njmm0k=",
			"length": 7649,
			"revpos": 333,
			"stub": true
		},
		"mutual_funds": {
			"content_type": "image/png",
			"digest": "sha1-QnTeO8LJJSgyrGxk/sfV6zIVc7M=",
			"length": 7695,
			"revpos": 334,
			"stub": true
		},
		"needsAnalysis": {
			"content_type": "image/png",
			"digest": "sha1-EpgU82oo04nkQyjKZanQXbbBVzc=",
			"length": 1493895,
			"revpos": 335,
			"stub": true
		},
		"needsChildEducate": {
			"content_type": "image/png",
			"digest": "sha1-KS7fUQ2J0xWBeZrlhUVOkKk/S5Y=",
			"length": 107666,
			"revpos": 336,
			"stub": true
		},
		"needsChildEducateExtraInfo": {
			"content_type": "image/png",
			"digest": "sha1-NGpPQ++G2GMlq+a/aK0SBTyCbiw=",
			"length": 100746,
			"revpos": 337,
			"stub": true
		},
		"needsChildEducateExtraThumb": {
			"content_type": "image/png",
			"digest": "sha1-mwhh72rLFVxI2tvGawbVcE7zO+c=",
			"length": 4089,
			"revpos": 338,
			"stub": true
		},
		"needsCritIllness": {
			"content_type": "image/png",
			"digest": "sha1-HGidyVB4/MWHO1F7Fk0A7vJUx+Y=",
			"length": 90609,
			"revpos": 340,
			"stub": true
		},
		"needsCriticalExtraInfo1": {
			"content_type": "image/png",
			"digest": "sha1-2NpEQ7P5Gk4xgIFJxrrwR9mBh/g=",
			"length": 97361,
			"revpos": 368,
			"stub": true
		},
		"needsCriticalExtraInfo2": {
			"content_type": "image/png",
			"digest": "sha1-u8QWEl56vX+rV1Lu1RzcQLwSu9I=",
			"length": 382743,
			"revpos": 369,
			"stub": true
		},
		"needsCriticalExtraInfo3": {
			"content_type": "image/png",
			"digest": "sha1-PHKURbCswNhwxw3CCi4PQa6Vplk=",
			"length": 281126,
			"revpos": 370,
			"stub": true
		},
		"needsFinancialEvaluation": {
			"content_type": "image/png",
			"digest": "sha1-qbu8DNY7qserWASwP+HPzSbAnjk=",
			"length": 726616,
			"revpos": 343,
			"stub": true
		},
		"needsLifeProtectionExtraInfo": {
			"content_type": "image/png",
			"digest": "sha1-DvOMCvIlTrHnIzbEzmxT4Ci7IgA=",
			"length": 136742,
			"revpos": 371,
			"stub": true
		},
		"needsProtect": {
			"content_type": "image/png",
			"digest": "sha1-42htbPivQWsG13p+5XYv8w7RWU0=",
			"length": 124517,
			"revpos": 344,
			"stub": true
		},
		"needsRetire": {
			"content_type": "image/png",
			"digest": "sha1-JYPpOUJoMCUsLwv2TD7LMysL+XI=",
			"length": 110987,
			"revpos": 346,
			"stub": true
		},
		"needsRetirementExtraInfo": {
			"content_type": "image/png",
			"digest": "sha1-wOpmh1brskCbQ5bir70uR4kGB4w=",
			"length": 334159,
			"revpos": 372,
			"stub": true
		},
		"needsRiskAssessment": {
			"content_type": "image/png",
			"digest": "sha1-6hUTM6LgUWNkgPM7k8Ic2ab9JpE=",
			"length": 2077436,
			"revpos": 348,
			"stub": true
		},
		"needsSaving": {
			"content_type": "image/png",
			"digest": "sha1-i5Z9Qxw/rcI4jak5IhZsjonCQ+s=",
			"length": 105305,
			"revpos": 349,
			"stub": true
		},
		"needsSavingExtraInfo": {
			"content_type": "image/png",
			"digest": "sha1-ILJ/xvT0PVT9Do07adzZOt3zm50=",
			"length": 63192,
			"revpos": 373,
			"stub": true
		},
		"one_coin": {
			"content_type": "image/png",
			"digest": "sha1-xYAAfDuJIpCtXuwO5qJ7uifnYuQ=",
			"length": 1214,
			"revpos": 351,
			"stub": true
		},
		"otherIcon": {
			"content_type": "image/png",
			"digest": "sha1-iZ931CgTSVPw5Qya8gHBDE2zNfM=",
			"length": 730,
			"revpos": 352,
			"stub": true
		},
		"others": {
			"content_type": "image/png",
			"digest": "sha1-8+0/U2hB2cDyIps4P0CH1PFRQ2s=",
			"length": 4611,
			"revpos": 353,
			"stub": true
		},
		"protectIcon": {
			"content_type": "image/png",
			"digest": "sha1-CQmszSu8NXy7tJVk6L2K4r+4hyw=",
			"length": 3061,
			"revpos": 345,
			"stub": true
		},
		"retirementIcon": {
			"content_type": "image/png",
			"digest": "sha1-RlH86sztWUQIlFp1sQsV39q4iaY=",
			"length": 2424,
			"revpos": 347,
			"stub": true
		},
		"salary": {
			"content_type": "image/png",
			"digest": "sha1-L1YlFA0lDevVBjDRD4TQxL1iXXU=",
			"length": 3220,
			"revpos": 354,
			"stub": true
		},
		"savingIcon": {
			"content_type": "image/png",
			"digest": "sha1-dKaSM9ziXRlBVaGDOUQHk/+L1cU=",
			"length": 1790,
			"revpos": 350,
			"stub": true
		},
		"savings": {
			"content_type": "image/png",
			"digest": "sha1-YPmQgCcSekeNGf14hBBkqcYD6rQ=",
			"length": 9884,
			"revpos": 355,
			"stub": true
		},
		"stocks": {
			"content_type": "image/png",
			"digest": "sha1-AMocKJtG9K4Offxb+9WXBjyqRAM=",
			"length": 8202,
			"revpos": 356,
			"stub": true
		},
		"three_coins": {
			"content_type": "image/png",
			"digest": "sha1-PQK0OiXvRCteY27n7/Wr15Cewcc=",
			"length": 1268,
			"revpos": 357,
			"stub": true
		},
		"us_treasury_bills": {
			"content_type": "image/png",
			"digest": "sha1-LuIEK8FA12DrbN1Up7iJg2X3ahk=",
			"length": 5782,
			"revpos": 360,
			"stub": true
		},
		"vacation": {
			"content_type": "image/png",
			"digest": "sha1-S7qm4k45qg+XR3SYXvU+gp7NmuY=",
			"length": 17724,
			"revpos": 361,
			"stub": true
		}
	},
	"_id": "CNAForm",
	"_rev": "373-e75940485a257fd7985bf2e74320b9be",
	"needsLandingContent": [{
		"bgColor": "#E6E2DF",
		"bgImage": "needsFinancialEvaluation",
		"buttonContinue": {
			"en": "Continue",
			"zh-Hans": "ç»§ç»­",
			"zh-Hant": "ç¹¼çºŒ"
		},
		"buttonStart": {
			"en": "Start",
			"zh-Hans": "å¼€å§‹",
			"zh-Hant": "é–‹å§‹"
		},
		"buttonView": {
			"en": "Edit",
			"zh-Hans": "ç¼–è¾‘",
			"zh-Hant": "ç¼–è¾‘"
		},
		"content": {
			"en": "Tell us about your finances so we can help you plan for the future.",
			"zh-Hans": "å‘Šè¯‰æˆ‘ä»¬æ‚¨çš„è´¢åŠ¡çŠ¶å†µï¼Œä»¥ä¾¿æˆ‘ä»¬å¯ä»¥å¸®åŠ©æ‚¨è§„åˆ’æœªæ¥ã€‚",
			"zh-Hant": "å‘Šè¨´æˆ‘å€‘æ‚¨çš„è²¡å‹™ç‹€æ³ï¼Œä»¥ä¾¿æˆ‘å€‘å¯ä»¥å¹«åŠ©æ‚¨è¦åŠƒæœªä¾†ã€‚"
		},
		"contentLastCompleted": {
			"en": "Last completed on ",
			"zh-Hans": "æœ€åŽåˆ°è®¿æ—¥æœŸ ",
			"zh-Hant": "æœ€å¾Œåˆ°è¨ªæ—¥æœŸ "
		},
		"expMonths": 8,
		"finaData": [{
			"boxRegularWidth": 261,
			"id": "buyProductsObjectives",
			"isMandatory": true,
			"isRelationNeedsAly": true,
			"isSingleSelect": false,
			"options": [{
				"id": "finanProt",
				"image": "imgSelectFinanProtect",
				"needAlyRelationIds": ["protect"],
				"title": {
					"en": "Financial protection against adversities"
				}
			},
			{
				"id": "prepareHealthNeeds",
				"image": "imgSelectCritIllness",
				"needAlyRelationIds": ["critIllness"],
				"title": {
					"en": "Preparation for health care needs"
				}
			},
			{
				"id": "provideFutureIncome",
				"image": "imgSelectRetire",
				"needAlyRelationIds": ["retirement"],
				"title": {
					"en": "Providing regular income in the future"
				}
			},
			{
				"id": "saveForFuture",
				"image": "imgSelectEducation",
				"needAlyRelationIds": ["childEducate",
				"retirement"],
				"title": {
					"en": "Saving up for the future"
				}
			},
			{
				"id": "investment",
				"image": "imgSelectSaving",
				"needAlyRelationIds": ["saving"],
				"title": {
					"en": "Investment"
				}
			},
			{
				"id": "others",
				"image": "imgSelectOthers",
				"isOther": true,
				"otherInputType": "text",
				"title": {
					"en": "Others"
				}
			}],
			"title": {
				"en": "What are your objectives of buying our products? (tick one or more)"
			},
			"type": "imageSelection"
		},
		{
			"boxRegularWidth": 261,
			"id": "interestedProducts",
			"isMandatory": true,
			"isSingleSelect": false,
			"options": [{
				"id": "product1",
				"image": "InterestProductsIcon1",
				"title": {
					"en": "Pure insurance product (without any savings or investment element)",
					"zh-Hans": "çº¯ä¿é™©äº§å“(æ²¡æœ‰å‚¨è“„æˆ–æŠ•èµ„æˆä»½)",
					"zh-Hant": "ç´”ä¿éšªç”¢å“(æ²’æœ‰å„²è“„æˆ–æŠ•è³‡æˆä»½)"
				}
			},
			{
				"id": "product2",
				"image": "InterestProductsIcon2",
				"title": {
					"en": "Insurance cum savings product (with savings but without any investment element)",
					"zh-Hans": "ä¿éšœé™„å¸¦å‚¨è“„çš„äº§å“(é™„å¸¦å‚¨è“„æˆä»½,ä½†æ²¡æœ‰æŠ•èµ„æˆä»½)",
					"zh-Hant": "ä¿éšœé™„å¸¶å„²è“„çš„ç”¢å“(é™„å¸¶å„²è“„æˆä»½,ä½†æ²’æœ‰æŠ•è³‡æˆä»½)"
				}
			},
			{
				"id": "product3",
				"image": "InterestProductsIcon3",
				"title": {
					"en": "Insurance cum investment product (investment decisions made by and risks borne by insurer",
					"zh-Hans": "ä¿éšœé™„å¸¦æŠ•èµ„çš„äº§å“ï¼ˆç”±ä¿é™©å…¬å¸ä½œå‡ºæŠ•èµ„å†³å®šåŠæ‰¿æ‹…é£Žé™©ï¼‰",
					"zh-Hant": "ä¿éšœé™„å¸¶æŠ•è³‡çš„ç”¢å“(ç”±ä¿éšªå…¬å¸ä½œå‡ºæŠ•è³‡æ±ºå®šåŠæ‰¿æ“”é¢¨éšª)"
				}
			},
			{
				"id": "product4",
				"image": "InterestProductsIcon4",
				"title": {
					"en": "Income from other investments (investment decisions made by and risks borne by policyholder)",
					"zh-Hans": "ä¿éšœé™„å¸¦æŠ•èµ„çš„äº§å“ï¼ˆç”±ä¿å•æŒæœ‰äººä½œå‡ºæŠ•èµ„å†³å®šåŠæ‰¿æ‹…é£Žé™©ï¼‰",
					"zh-Hant": "ä¿éšœé™„å¸¶æŠ•è³‡çš„ç”¢å“(ç”±ä¿å–®æŒæœ‰äººä½œå‡ºæŠ•è³‡æ±ºå®šåŠæ‰¿æ“”é¢¨éšª)"
				}
			},
			{
				"id": "others",
				"image": "InterestProductsIcon5",
				"isOther": true,
				"otherInputType": "text",
				"title": {
					"en": "Others",
					"zh-Hans": "å…¶ä»–",
					"zh-Hant": "å…¶ä»–"
				}
			}],
			"title": {
				"en": "What types of insurance products are you looking for to achieve your objectives?",
				"zh-Hans": "æ‚¨çŽ°æ­£ç‰©è‰²å“ªç§ç±»åž‹çš„ä¿é™©è®¡åˆ’ä»¥æ»¡è¶³æ‚¨æ‰€å…³æ³¨çš„äº‹é¡¹?",
				"zh-Hant": "æ‚¨ç¾æ­£ç‰©è‰²å“ªç¨®é¡žåž‹çš„ä¿éšªè¨ˆåŠƒä»¥æ»¿è¶³æ‚¨æ‰€é—œæ³¨çš„äº‹é …?"
			},
			"type": "iconSelection"
		},
		{
			"id": "targetProtectionTimeLength",
			"isMandatory": true,
			"isSingleSelect": true,
			"options": [{
				"id": "lessThan1yr",
				"title": {
					"en": "Less than 1 year",
					"zh-Hans": "1å¹´ä»¥å†…",
					"zh-Hant": "1å¹´ä»¥å…§"
				}
			},
			{
				"id": "1-5yrs",
				"title": {
					"en": "1-5 years",
					"zh-Hans": "1-5å¹´",
					"zh-Hant": "1-5å¹´"
				}
			},
			{
				"id": "6-10yrs",
				"title": {
					"en": "6-10 years",
					"zh-Hans": "6-10å¹´",
					"zh-Hant": "6-10å¹´"
				}
			},
			{
				"id": "11-20yrs",
				"title": {
					"en": "11-20 years",
					"zh-Hans": "11-20å¹´",
					"zh-Hant": "11-20å¹´"
				}
			},
			{
				"id": "over20yrs",
				"title": {
					"en": "Over 20 years",
					"zh-Hans": "è¶…è¿‡20å¹´",
					"zh-Hant": "è¶…éŽ20å¹´"
				}
			},
			{
				"id": "wholeLife",
				"title": {
					"en": "Whole of life",
					"zh-Hans": "æ°¸è¿œ",
					"zh-Hant": "æ°¸é "
				}
			}],
			"title": {
				"en": "What is your target benefit / protection period for insurance policy and/or investment plan?"
			},
			"type": "textSelection"
		},
		{
			"id": "avgMonthlyIncome",
			"isMandatory": true,
			"isSingleSelect": true,
			"options": [{
				"id": "lessThan10k",
				"title": {
					"en": "less than $10,000",
					"zh-Hans": "å°‘äºŽ$ 10,000",
					"zh-Hant": "å°‘æ–¼$ 10,000"
				}
			},
			{
				"id": "10k-19k",
				"title": {
					"en": "$10,000 - $19,999",
					"zh-Hans": "$10,000 è‡³ $19,999",
					"zh-Hant": "$10,000 è‡³ $19,999"
				}
			},
			{
				"id": "20k-49k",
				"title": {
					"en": "$20,000 - $49,999",
					"zh-Hans": "$20,000 è‡³ $49,999",
					"zh-Hant": "$20,000 è‡³ $49,999"
				}
			},
			{
				"id": "50k-100k",
				"title": {
					"en": "$50,000 - $100,000",
					"zh-Hans": "$50,000 è‡³ $100,000",
					"zh-Hant": "$50,000 è‡³ $100,000"
				}
			},
			{
				"id": "over100k",
				"title": {
					"en": "over $100,000",
					"zh-Hans": "å¤šäºŽ $100,000",
					"zh-Hant": "å¤šæ–¼ $100,000"
				}
			},
			{
				"id": "other",
				"isOther": true,
				"otherInputType": "currency",
				"otherTitle": {
					"en": "Not less than",
					"zh-Hans": "æ¯æœˆä¸å°‘äºŽ",
					"zh-Hant": "æ¯æœˆä¸å°‘æ–¼"
				},
				"title": {
					"en": "Others",
					"zh-Hans": "å…¶ä»–",
					"zh-Hant": "å…¶ä»–"
				}
			}],
			"title": {
				"en": "What is your average monthly income from all sources in the past two years?",
				"zh-Hans": "è¿‡åŽ»ä¸¤å¹´æ‚¨æ‰€æœ‰æ”¶å…¥æ‰€å¾—çš„æ¯æœˆå¹³å‡æ”¶å…¥æ˜¯å¤šå°‘?",
				"zh-Hant": "éŽåŽ»å…©å¹´æ‚¨æ‰€æœ‰æ”¶å…¥æ‰€å¾—çš„æ¯æœˆå¹³å‡æ”¶å…¥æ˜¯å¤šå°‘?"
			},
			"type": "textSelection"
		},
		{
			"boxRegularWidth": 192,
			"id": "liquidAsset",
			"isMandatory": true,
			"isSingleSelect": false,
			"optionalText": "abcde",
			"options": [{
				"id": "cash",
				"image": "cash",
				"title": {
					"en": "Cash",
					"zh-Hans": "çŽ°é‡‘",
					"zh-Hant": "ç¾é‡‘"
				}
			},
			{
				"id": "bankAccount",
				"image": "bank_accounts",
				"title": {
					"en": "Bank savings",
					"zh-Hans": "é“¶è¡Œå­˜æ¬¾",
					"zh-Hant": "éŠ€è¡Œå­˜æ¬¾"
				}
			},
			{
				"id": "moneyMarket",
				"image": "money_markets",
				"title": {
					"en": "Money markets",
					"zh-Hans": "é“¶è¡Œå­˜æ¬¾",
					"zh-Hant": "éŠ€è¡Œå­˜æ¬¾"
				}
			},
			{
				"id": "stock",
				"image": "stocks",
				"title": {
					"en": "Stocks",
					"zh-Hans": "è‚¡ç¥¨",
					"zh-Hant": "è‚¡ç¥¨"
				}
			},
			{
				"id": "bonds",
				"image": "bonds",
				"title": {
					"en": "Bonds",
					"zh-Hans": "å€ºåˆ¸",
					"zh-Hant": "å‚µåˆ¸"
				}
			},
			{
				"id": "mutualFund",
				"image": "mutual_funds",
				"title": {
					"en": "Mutual funds",
					"zh-Hans": "äº’æƒ åŸºé‡‘",
					"zh-Hant": "äº’æƒ åŸºé‡‘"
				}
			},
			{
				"id": "usTreasuryBills",
				"image": "us_treasury_bills",
				"title": {
					"en": "US treasury bills",
					"zh-Hans": "ç¾Žå›½å›½åº“å€ºåˆ¸",
					"zh-Hant": "ç¾Žåœ‹åœ‹åº«å‚µåŠµ"
				}
			},
			{
				"id": "others",
				"image": "others",
				"isOther": true,
				"otherInputType": "text",
				"title": {
					"en": "Others",
					"zh-Hans": "å…¶ä»–",
					"zh-Hant": "å…¶ä»–"
				}
			}],
			"title": {
				"en": "What types of liquid assets do you hold?",
				"zh-Hans": "ä½ æŒæœ‰ä»€ä¹ˆç±»åž‹çš„æµåŠ¨èµ„äº§?",
				"zh-Hant": "ä½ æŒæœ‰ä»€éº¼é¡žåž‹çš„æµå‹•è³‡ç”¢?"
			},
			"type": "iconSelection"
		},
		{
			"defaultValue": 0,
			"id": "liquidAssetAmount",
			"interval": 100000,
			"isMandatory": true,
			"leftImage": "one_coin",
			"maxValue": 5000000,
			"minValue": 0,
			"numberEditable": true,
			"rightImage": "three_coins",
			"title": {
				"en": "What is the approximate accumulative amount of your liquid assets?",
				"zh-Hans": "æ‚¨çŽ°æ—¶ç´¯ç§¯çš„æµåŠ¨èµ„äº§çº¦æœ‰å¤šå°‘?",
				"zh-Hant": "æ‚¨ç¾æ™‚ç´¯ç©çš„æµå‹•è³‡ç”¢ç´„æœ‰å¤šå°‘?"
			},
			"type": "normalSlider"
		},
		{
			"footerMsg": {
				"en": "Please note that your application will not be approved if you choose not to respond to both question 4, 5 and 6 above.",
				"zh-Hans": "è¯·æ³¨æ„ï¼Œå¦‚æ‚¨é€‰æ‹©ä¸å¡«æŠ¥ä¸Šè¿°é¢˜ç›®4,5æˆ–6ï¼Œæœ¬å…¬å¸å°†éœ€æ‹’ç»æ‚¨çš„æŠ•ä¿ç”³è¯·ã€‚",
				"zh-Hant": "è«‹æ³¨æ„ï¼Œå¦‚æ‚¨é¸æ“‡ä¸å¡«å ±ä¸Šè¿°é¡Œç›®4,5æˆ–6, æœ¬å…¬å¸å°‡éœ€æ‹’çµ•æ‚¨çš„æŠ•ä¿ç”³è«‹ã€‚"
			},
			"id": "notAnsweredReason",
			"isMandatory": true,
			"title": {
				"en": "If you choose not to disclose income/asset information under question 4, 5 or 6 above, please indicate your reason(s).",
				"zh-Hans": "å¦‚æ‚¨é€‰æ‹©ä¸äºŽä¸Šè¿°é¢˜ç›®4,5æˆ–6ä¸­æŠ«éœ²æ”¶å…¥/èµ„äº§èµ„æ–™ï¼Œè¯·æ³¨æ˜Žæ‚¨çš„åŽŸå› ï¼š",
				"zh-Hant": "å¦‚æ‚¨é¸æ“‡ä¸æ–¼ä¸Šè¿°é¡Œç›®4,5æˆ–6ä¸­æŠ«éœ²æ”¶å…¥/è³‡ç”¢è³‡æ–™,è«‹è¨»æ˜Žæ‚¨çš„åŽŸå› :"
			},
			"type": "drawing"
		},
		{
			"id": "insurInvestTimeLength",
			"isMandatory": true,
			"isSingleSelect": true,
			"options": [{
				"id": "lessThan1yr",
				"title": {
					"en": "Less than 1 year",
					"zh-Hans": "1å¹´ä»¥å†…",
					"zh-Hant": "1å¹´ä»¥å…§"
				}
			},
			{
				"id": "1-5yrs",
				"title": {
					"en": "1-5 years",
					"zh-Hans": "1-5å¹´",
					"zh-Hant": "1-5å¹´"
				}
			},
			{
				"id": "6-10yrs",
				"title": {
					"en": "6-10 years",
					"zh-Hans": "6-10å¹´",
					"zh-Hant": "6-10å¹´"
				}
			},
			{
				"id": "11-20yrs",
				"title": {
					"en": "11-20 years",
					"zh-Hans": "11-20å¹´",
					"zh-Hant": "11-20å¹´"
				}
			},
			{
				"id": "over20yrs",
				"title": {
					"en": "Over 20 years",
					"zh-Hans": "è¶…è¿‡20å¹´",
					"zh-Hant": "è¶…éŽ20å¹´"
				}
			}],
			"title": {
				"en": "How long are you able to contribute to an insurance policy and/or investment plan?",
				"zh-Hans": "æ‚¨å¯æ”¯ä»˜ä¿å•åŠ/æˆ–æŠ•èµ„è®¡åˆ’çš„å¹´æœŸä¸º:",
				"zh-Hant": "æ‚¨å¯æ”¯ä»˜ä¿å–®åŠ/æˆ–æŠ•è³‡è¨ˆåŠƒçš„å¹´æœŸç‚º:"
			},
			"type": "textSelection"
		},
		{
			"defaultValue": 0,
			"id": "incomePercentPayInsur",
			"isMandatory": true,
			"title": {
				"en": "What percentage of your disposable income would you be able to use to pay your monthly premium for the entire term of the insurance policy / investment plan?",
				"zh-Hans": "æ‚¨æ¯æœˆå¯æ‰¿æ‹…çš„ä¿è´¹å æ‚¨ä¸ªäººå¯åŠ¨ç”¨æ”¶å…¥æ¯”çŽ‡ä¸ºï¼š",
				"zh-Hant": "æ‚¨æ¯æœˆå¯æ‰¿æ“”çš„ä¿è²»ä½”æ‚¨å€‹äººå¯å‹•ç”¨æ”¶å…¥æ¯”çŽ‡ç‚º:"
			},
			"type": "trackingSlider"
		},
		{
			"boxRegularWidth": 192,
			"id": "fundSources",
			"isMandatory": true,
			"isSingleSelect": false,
			"options": [{
				"id": "salary",
				"image": "salary",
				"title": {
					"en": "Salary",
					"zh-Hans": "è–ªé‡‘",
					"zh-Hant": "è–ªé‡‘"
				}
			},
			{
				"id": "income",
				"image": "income",
				"title": {
					"en": "Income",
					"zh-Hans": "æ”¶å…¥",
					"zh-Hant": "æ”¶å…¥"
				}
			},
			{
				"id": "savings",
				"image": "savings",
				"title": {
					"en": "Savings",
					"zh-Hans": "å‚¨è“„",
					"zh-Hant": "å„²è“„"
				}
			},
			{
				"id": "incomeOverInvest",
				"image": "incomeFromOtherInvestments",
				"title": {
					"en": "Income from other investments",
					"zh-Hans": "å…¶ä»–æŠ•èµ„æ”¶å…¥",
					"zh-Hant": "å…¶ä»–æŠ•è³‡æ”¶å…¥"
				}
			},
			{
				"id": "accumSavInvest",
				"image": "accumulativeSavingsInvestments",
				"title": {
					"en": "Accumulative savings \u0026 investments",
					"zh-Hans": "ç´¯ç§¯å‚¨è“„ä¸ŽæŠ•èµ„",
					"zh-Hant": "ç´¯ç©å„²è“„èˆ‡æŠ•è³‡"
				}
			},
			{
				"id": "others",
				"image": "others",
				"isOther": true,
				"otherInputType": "text",
				"title": {
					"en": "Others",
					"zh-Hans": "å…¶ä»–",
					"zh-Hant": "å…¶ä»–"
				}
			}],
			"title": {
				"en": "In considering your ability to make payments, what are your sources of funds?",
				"zh-Hans": "åœ¨æ‚¨è€ƒè™‘ç¼´æ¬¾èƒ½åŠ›æ—¶ï¼Œè¯·æ³¨æ˜Žèµ„é‡‘æ¥æºï¼š",
				"zh-Hant": "åœ¨æ‚¨è€ƒæ…®ç¹³æ¬¾èƒ½åŠ›æ™‚ï¼Œè«‹è¨»æ˜Žè³‡é‡‘ä¾†æº:"
			},
			"type": "iconSelection"
		}],
		"id": "finanEval",
		"template": "manyTypesQuestionTmpl",
		"title": {
			"en": "Financial Evaluation",
			"zh-Hans": "è´¢åŠ¡è¯„æµ‹",
			"zh-Hant": "è²¡å‹™è©•æ¸¬"
		}
	},
	{
		"analysisData": {
			"aspectPrioritiseHeader": {
				"en": "Reorder your needs according to how important they are to you and your family.",
				"zh-Hans": "æ‹–åŠ¨æ‚¨æ‰€å…³æ³¨çš„äº‹é¡¹ä»¥è¿›è¡Œä¼˜å…ˆæ¬¡åºæŽ’åºã€‚",
				"zh-Hant": "æ‹–å‹•æ‚¨æ‰€é—œæ³¨çš„äº‹é …ä»¥é€²è¡Œå„ªå…ˆæ¬¡åºæŽ’åºã€‚"
			},
			"aspectSelectionHeader": {
				"en": "Life is unpredictable, especially considering the challenges of modern life.\n Protect you and your family against the unexpected.",
				"zh-Hans": "åŠæ—©æœªé›¨ç»¸ç¼ª,è®¡åˆ’å…¨é¢çš„ä¿éšœã€‚ \n ä¸ºè‡³çˆ±æä¾›ä¸€ä¸ªç¨³å¥å¯é çš„ç”Ÿæ´»ä¿éšœã€‚",
				"zh-Hant": "åŠæ—©æœªé›¨ç¶¢ç¹†,è¨ˆåŠƒå…¨é¢çš„ä¿éšœã€‚ \n ç‚ºè‡³æ„›æä¾›ä¸€å€‹ç©©å¥å¯é çš„ç”Ÿæ´»ä¿éšœã€‚"
			},
			"aspects": [{
				"boxRegularWidth": 261,
				"desc": {
					"en": "Protect yourself and your loved ones",
					"zh-Hans": "ä¿éšœæ‚¨åŠæ‚¨çš„æŒˆçˆ±",
					"zh-Hant": "ä¿éšœæ‚¨åŠæ‚¨çš„æŒˆæ„›"
				},
				"guide": [{
					"content": {
						"en": "View the slide below to calculate how much protection you need.",
						"zh-Hans": "å‚è€ƒä»¥ä¸‹å›¾åƒæ‰¾å‡ºä½ éœ€è¦çš„äººå¯¿ä¿éšœé‡‘é¢ã€‚",
						"zh-Hant": "åƒè€ƒä»¥ä¸‹åœ–åƒæ‰¾å‡ºä½ éœ€è¦çš„äººå£½ä¿éšœé‡‘é¡ã€‚"
					},
					"image": "needsLifeProtectionExtraInfo",
					"title": {
						"en": "HOW MUCH PROTECTION DO I NEED?",
						"zh-Hans": "æˆ‘éœ€è¦å¤šå°‘äººå¯¿ä¿éšœæ‰è¶³å¤Ÿ?",
						"zh-Hant": "æˆ‘éœ€è¦å¤šå°‘äººå£½ä¿éšœæ‰è¶³å¤ ?"
					}
				}],
				"id": "protect",
				"image": "needsProtect",
				"questions": [{
					"defaultValue": 0,
					"id": "incomeReplacement",
					"interval": 100000,
					"isMandatory": true,
					"leftImage": "one_coin",
					"maxValue": 1000000,
					"numberEditable": true,
					"rightImage": "three_coins",
					"title": {
						"en": "If you pass away, how much will your family need yearly to replace your income?",
						"zh-Hans": "å¦‚æ‚¨ä¸å¹¸åŽ»ä¸–, æ‚¨çš„å®¶äººéœ€è¦å¤šå°‘ä¿éšœæ¥ç»´æŒçŽ°æœ‰çš„æ¯å¹´åŸºæœ¬å®¶åº­å¼€æ”¯?",
						"zh-Hant": "å¦‚æ‚¨ä¸å¹¸æ•…ä¸–, æ‚¨çš„å®¶äººéœ€è¦å¤šå°‘ä¿éšœä¾†ç¶­æŒç¾æœ‰çš„æ¯å¹´åŸºæœ¬å®¶åº­é–‹æ”¯?"
					},
					"type": "normalSlider",
					"unit": "dollar"
				},
				{
					"defaultValue": 20,
					"id": "incomePeriod",
					"increment": 1,
					"isMandatory": true,
					"maxValue": 100,
					"minValue": 1,
					"title": {
						"en": "How many years will your family need this money for?",
						"zh-Hans": "æ‰€éœ€å¹´æœŸ?",
						"zh-Hant": "æ‰€éœ€å¹´æœŸ?"
					},
					"type": "stepper",
					"unit": {
						"en": " year(s)",
						"zh-Hans": "å¹´",
						"zh-Hant": "å¹´"
					}
				},
				{
					"defaultValue": 0,
					"id": "extraMoney",
					"interval": 100000,
					"isMandatory": true,
					"leftImage": "one_coin",
					"maxValue": 1000000,
					"numberEditable": true,
					"rightImage": "three_coins",
					"title": {
						"en": "How much expenses will be incurred after your death, including outstanding mortgage, personal debt and emergency fund?",
						"zh-Hans": "æ‚¨é¢„è®¡åœ¨æ‚¨æ•…ä¸–åŽ, è¿˜æœ‰å…¶ä»–å¼€æ”¯åŒ…æ‹¬æœªå¿è¿˜æŒ‰æ­ï¼Œä¸ªäººå€ºåŠ¡å’Œåº”æ€¥èµ„é‡‘?",
						"zh-Hant": "æ‚¨é è¨ˆåœ¨æ‚¨æ•…ä¸–å¾Œ, é‚„æœ‰å…¶ä»–é–‹æ”¯åŒ…æ‹¬æœªå„Ÿé‚„æŒ‰æ­ï¼Œå€‹äººå‚µå‹™å’Œæ‡‰æ€¥è³‡é‡‘?"
					},
					"type": "normalSlider",
					"unit": "dollar"
				},
				{
					"defaultValue": 0,
					"id": "preparedCapital",
					"interval": 100000,
					"isMandatory": true,
					"leftImage": "one_coin",
					"maxValue": 5000000,
					"numberEditable": true,
					"rightImage": "three_coins",
					"title": {
						"en": "How much capital have you set aside for your family in case you pass away?",
						"zh-Hans": "å¦‚æ‚¨ä¸å¹¸åŽ»ä¸–, æ‚¨é¢„ç•™å¤šå°‘èµ„äº§ç»™ä½ çš„å®¶äºº?",
						"zh-Hant": "å¦‚æ‚¨ä¸å¹¸æ•…ä¸–, æ‚¨é ç•™å¤šå°‘è³‡ç”¢çµ¦ä½ çš„å®¶äºº?"
					},
					"type": "normalSlider",
					"unit": "dollar"
				},
				{
					"defaultValue": 0,
					"id": "preparedInsurance",
					"interval": 100000,
					"isMandatory": true,
					"leftImage": "one_coin",
					"maxValue": 5000000,
					"numberEditable": true,
					"rightImage": "three_coins",
					"title": {
						"en": "How much insurance coverage do you have for your life protection?",
						"zh-Hans": "æ‚¨çŽ°æœ‰å¤šå°‘äººå¯¿ä¿éšœ?",
						"zh-Hant": "æ‚¨ç¾æœ‰å¤šå°‘äººå£½ä¿éšœ?"
					},
					"type": "normalSlider",
					"unit": "dollar"
				}],
				"shortfallFunc": "function(needStr){eval('var need=' + needStr);try{ var values=need.values,incomePeriod=values.incomePeriod?values.incomePeriod:0,extraMoney=values.extraMoney?values.extraMoney:0,incomeReplacement=values.incomeReplacement?values.incomeReplacement:0,preparedInsurance=values.preparedInsurance?values.preparedInsurance:0,preparedCapital=values.preparedCapital?values.preparedCapital:0,inflat=need.inflation?need.inflation:0,i=inflat / 100, total=(inflat==0)?incomeReplacement*incomePeriod+ extraMoney:(1-Math.pow(1+i,incomePeriod))/-i*incomeReplacement+extraMoney;var hasAmount=preparedInsurance+preparedCapital,shortfall=total-hasAmount;need.hasAmount=hasAmount;need.needAmount=total;if(0!=total){if(shortfall\u003e0){need.status='Shortfall';need.shortfallAmount=shortfall;}else{need.status='Fulfilled';need.shortfallAmount=0;}}else{need.status='None';need.shortfallAmount=0;}} catch(ex){debug.ex = ex;} return returnResult(need); };",
				"title": {
					"en": "Life Protection",
					"zh-Hans": "äººå¯¿ä¿éšœ",
					"zh-Hant": "äººå£½ä¿éšœ"
				}
			},
			{
				"boxRegularWidth": 261,
				"desc": {
					"en": "Take the financial stress out of critical illness",
					"zh-Hans": "å±ç–¾ä¿éšœå¯å‡è½»æ‚¨åŠå®¶äººçš„è´¢åŠ¡é‡æ‹…",
					"zh-Hant": "å±ç–¾ä¿éšœå¯æ¸›è¼•æ‚¨åŠå®¶äººçš„è²¡å‹™é‡æ“”"
				},
				"guide": [{
					"image": "needsCriticalExtraInfo1",
					"title": {
						"en": "LEADING CAUSES OF DEATH",
						"zh-Hans": "ä¸»è¦æ­»äº¡åŽŸå› ",
						"zh-Hant": "ä¸»è¦æ­»äº¡åŽŸå› "
					}
				},
				{
					"image": "needsCriticalExtraInfo2",
					"title": {
						"en": "CANCER INCIDENCE \u0026 MORTALITY RATE",
						"zh-Hans": "ç™Œç—‡çš„å‘ç—…çŽ‡å’Œæ­»äº¡çŽ‡",
						"zh-Hant": "ç™Œç—‡çš„ç™¼ç—…çŽ‡å’Œæ­»äº¡çŽ‡"
					}
				},
				{
					"image": "needsCriticalExtraInfo3",
					"title": {
						"en": "AVERAGE HEALTHCARE COST FOR VARIOUS CRITICAL ILLNESSES",
						"zh-Hans": "å„ç§é‡å¤§ç–¾ç—…çš„å¹³å‡åŒ»ç–—å¼€æ”¯",
						"zh-Hant": "å„ç¨®é‡å¤§ç–¾ç—…çš„å¹³å‡é†«ç™‚é–‹æ”¯"
					}
				}],
				"id": "critIllness",
				"image": "needsCritIllness",
				"questions": [{
					"defaultValue": 0,
					"id": "treatment",
					"interval": 100000,
					"isMandatory": true,
					"leftImage": "one_coin",
					"maxValue": 1000000,
					"numberEditable": true,
					"rightImage": "three_coins",
					"title": {
						"en": "In case of critical illness (Cancer / Heart Attack / Stroke), how much will you need for medical treatment?",
						"zh-Hans": "åœ¨é‡å¤§ç–¾ç—…çš„æƒ…å†µä¸‹ï¼ˆç™Œç—‡/å¿ƒè„ç—…/ä¸­é£Žï¼‰ï¼Œæ‚¨ä¼°è®¡æ‚¨éœ€è¦å¤šå°‘æ²»ç–—è´¹ç”¨?",
						"zh-Hant": "åœ¨é‡å¤§ç–¾ç—…çš„æƒ…å†µä¸‹ï¼ˆç™Œç—‡/å¿ƒè„ç—…/ä¸­é£Žï¼‰ï¼Œæ‚¨ä¼°è¨ˆæ‚¨éœ€è¦å¤šå°‘æ²»ç™‚è²»ç”¨?"
					},
					"type": "normalSlider",
					"unit": "dollar"
				},
				{
					"defaultValue": 0,
					"id": "incomeReplacement",
					"interval": 100000,
					"isMandatory": true,
					"leftImage": "one_coin",
					"maxValue": 1000000,
					"numberEditable": true,
					"rightImage": "three_coins",
					"title": {
						"en": "During recovery, how much will your family need yearly to replace your income?",
						"zh-Hans": "åœ¨æ²»ç–—æœŸé—´å¦‚ä¸èƒ½å·¥ä½œï¼Œæ‚¨çš„å®¶åº­éœ€è¦å¤šå°‘æ¥ç»´æŒæ¯å¹´çš„å®¶åº­å¼€æ”¯?",
						"zh-Hant": "åœ¨æ²»ç™‚æœŸé–“å¦‚ä¸èƒ½å·¥ä½œï¼Œæ‚¨çš„å®¶åº­éœ€è¦å¤šå°‘ä¾†ç¶­æŒæ¯å¹´çš„å®¶åº­é–‹æ”¯?"
					},
					"type": "normalSlider",
					"unit": "dollar"
				},
				{
					"id": "incomePeriod",
					"increment": 1,
					"isMandatory": true,
					"maxValue": 100,
					"minValue": 1,
					"title": {
						"en": "How many years will your family need this money for?",
						"zh-Hans": "æ‰€éœ€å¹´æœŸ?",
						"zh-Hant": "æ‰€éœ€å¹´æœŸ?"
					},
					"type": "stepper",
					"unit": {
						"en": " year(s)",
						"zh-Hans": "å¹´",
						"zh-Hant": "å¹´"
					}
				},
				{
					"defaultValue": 0,
					"id": "preparedCapital",
					"interval": 100000,
					"isMandatory": true,
					"leftImage": "one_coin",
					"maxValue": 5000000,
					"numberEditable": true,
					"rightImage": "three_coins",
					"title": {
						"en": "How much capital have you set aside for your family in case you are critically ill?",
						"zh-Hans": "å¦‚æ‚¨ä¸å¹¸ç”Ÿç—…, æ‚¨æœ‰é¢„ç•™è¶³å¤Ÿèµ„é‡‘æ”¯ä»˜åŒ»ç–—å¼€æ”¯",
						"zh-Hant": "å¦‚æ‚¨ä¸å¹¸ç”Ÿç—…, æ‚¨æœ‰é ç•™è¶³å¤ è³‡é‡‘æ”¯ä»˜é†«ç™‚é–‹æ”¯?"
					},
					"type": "normalSlider",
					"unit": "dollar"
				},
				{
					"defaultValue": 0,
					"id": "preparedInsurance",
					"interval": 100000,
					"isMandatory": true,
					"leftImage": "one_coin",
					"maxValue": 5000000,
					"numberEditable": true,
					"rightImage": "three_coins",
					"title": {
						"en": "How much insurance coverage do you have for critical illness?",
						"zh-Hans": "æ‚¨çŽ°æœ‰å¤šå°‘å±ç–¾ä¿éšœ?",
						"zh-Hant": "æ‚¨ç¾æœ‰å¤šå°‘å±ç–¾ä¿éšœ?"
					},
					"type": "normalSlider",
					"unit": "dollar"
				}],
				"shortfallFunc": "function(needStr){eval('var need='+needStr);var values=need.values,incomePeriod=values.incomePeriod?values.incomePeriod:0,treatment=values.treatment?values.treatment:0,incomeReplacement=values.incomeReplacement?values.incomeReplacement:0,preparedInsurance=values.preparedInsurance?values.preparedInsurance:0,preparedCapital=values.preparedCapital?values.preparedCapital:0,inflat=need.inflation?need.inflation:0,total=0,i=inflat/100;total=(inflat==0)?incomeReplacement*incomePeriod+ treatment:(1-Math.pow(1+i,incomePeriod))/-i * incomeReplacement + treatment;var hasAmount=preparedInsurance+preparedCapital,shortfall=total-hasAmount;need.hasAmount=hasAmount,need.needAmount=total,0!=total?shortfall\u003e0?(need.status='Shortfall',need.shortfallAmount=shortfall):(need.status='Fulfilled',need.shortfallAmount=0):(need.status='None',need.shortfallAmount=0);return returnResult(need);};",
				"title": {
					"en": "Critical Illness",
					"zh-Hans": "å±ç–¾ä¿éšœ",
					"zh-Hant": "å±ç–¾ä¿éšœ"
				}
			},
			{
				"boxRegularWidth": 261,
				"desc": {
					"en": "Give your children the education they deserve",
					"zh-Hans": "ç»™æ‚¨çš„å­å¥³å…¨é¢çš„æ•™è‚²å‚¨å¤‡",
					"zh-Hant": "çµ¦æ‚¨çš„å­å¥³å…¨é¢çš„æ•™è‚²å„²å‚™"
				},
				"guide": [{
					"image": "needsChildEducateExtraInfo",
					"title": {
						"en": "AVERAGE TUITION FEE \u0026 LIVING EXPENSES",
						"zh-Hans": "å„åœ°é«˜ç­‰æ•™è‚²å¼€æ”¯å‚è€ƒ",
						"zh-Hant": "å„åœ°é«˜ç­‰æ•™è‚²é–‹æ”¯åƒè€ƒ"
					}
				}],
				"id": "childEducate",
				"image": "needsChildEducate",
				"questions": [{
					"id": "yearsUntilStudy",
					"increment": 1,
					"isMandatory": true,
					"maxValue": 30,
					"minValue": 1,
					"title": {
						"en": "In how many years will your children start their studies?",
						"zh-Hans": "ä½ çš„å­å¥³è¿˜æœ‰å¤šå°‘å¹´å¼€å§‹å­¦ä¹ ï¼Ÿ",
						"zh-Hant": "ä½ çš„å­å¥³é‚„æœ‰å¤šå°‘å¹´é–‹å§‹å­¸ç¿’ï¼Ÿ"
					},
					"type": "stepper",
					"unit": {
						"en": " year(s)",
						"zh-Hans": "å¹´",
						"zh-Hant": "å¹´"
					}
				},
				{
					"boxRegularWidth": 192,
					"id": "studyLocation",
					"isMandatory": true,
					"isSingleSelect": false,
					"options": [{
						"id": "localSchool",
						"image": "InLocalSchool",
						"title": {
							"en": "In a local school",
							"zh-Hans": "æœ¬åœ°",
							"zh-Hant": "æœ¬åœ°"
						}
					},
					{
						"id": "australia",
						"image": "Australia",
						"title": {
							"en": "Australia",
							"zh-Hans": "æ¾³æ´²",
							"zh-Hant": "æ¾³æ´²"
						}
					},
					{
						"id": "unitedStates",
						"image": "UnitedStates",
						"title": {
							"en": "United States",
							"zh-Hans": "ç¾Žå›½",
							"zh-Hant": "ç¾Žåœ‹"
						}
					},
					{
						"id": "canada",
						"image": "Canada",
						"title": {
							"en": "Canada",
							"zh-Hans": "åŠ æ‹¿å¤§",
							"zh-Hant": "åŠ æ‹¿å¤§"
						}
					},
					{
						"id": "unitedKingdom",
						"image": "UnitedKingdom",
						"title": {
							"en": "United Kingdom",
							"zh-Hans": "è‹±å›½",
							"zh-Hant": "è‹±åœ‹"
						}
					},
					{
						"id": "others",
						"image": "others",
						"isOther": true,
						"otherInputType": "text",
						"title": {
							"en": "Other",
							"zh-Hans": "å…¶ä»–",
							"zh-Hant": "å…¶ä»–"
						}
					}],
					"title": {
						"en": "Where will your children be studying?",
						"zh-Hans": "ä½ çš„å­å¥³æ‰“ç®—åœ¨å“ªä¸ªå›½å®¶å­¦ä¹ ï¼Ÿ",
						"zh-Hant": "ä½ çš„å­å¥³æ‰“ç®—åœ¨é‚£å€‹åœ‹å®¶å­¸ç¿’ï¼Ÿ"
					},
					"type": "iconSelection"
				},
				{
					"defaultValue": 0,
					"id": "preSchoolValue",
					"interval": 100000,
					"isMandatory": true,
					"leftImage": "one_coin",
					"maxValue": 3000000,
					"numberEditable": true,
					"rightImage": "three_coins",
					"title": {
						"en": "How much will you need to support your childrenâ€™s education?",
						"zh-Hans": "ä½ å°†éœ€è¦å¤šå°‘èµ„é‡‘æ”¯æŒä½ å­©å­çš„æ•™è‚²?",
						"zh-Hant": "ä½ å°‡éœ€è¦å¤šå°‘è³‡é‡‘æ”¯æŒä½ å­©å­çš„æ•™è‚²?"
					},
					"type": "normalSlider",
					"unit": "dollar"
				},
				{
					"defaultValue": 0,
					"id": "preparedCapital",
					"interval": 100000,
					"isMandatory": true,
					"leftImage": "one_coin",
					"maxValue": 5000000,
					"numberEditable": true,
					"rightImage": "three_coins",
					"title": {
						"en": "How much insurance coverage do you have for your childrenâ€™s education?",
						"zh-Hans": "æ‚¨çŽ°æœ‰å¤šå°‘å‚¨è“„æˆ–å­å¥³æ•™è‚²ä¿éšœ?",
						"zh-Hant": "æ‚¨ç¾æœ‰å¤šå°‘å„²è“„æˆ–å­å¥³æ•™è‚²ä¿éšœ?"
					},
					"type": "normalSlider",
					"unit": "dollar"
				}],
				"shortfallFunc": "function(needStr){eval('var need='+needStr);var values=need.values,yearsUntilStudy=values.yearsUntilStudy?values.yearsUntilStudy:0,preSchoolValue=values.preSchoolValue?values.preSchoolValue:0,preparedCapital=values.preparedCapital?values.preparedCapital:0,inflat=need.inflation?need.inflation:0,total=preSchoolValue * Math.pow(1+inflat/100,yearsUntilStudy);var hasAmount=preparedCapital,shortfall=total-hasAmount;need.hasAmount=hasAmount,need.needAmount=total,0!=total?shortfall\u003e0?(need.status='Shortfall',need.shortfallAmount=shortfall):(need.status='Fulfilled',need.shortfallAmount=0):(need.status='None',need.shortfallAmount=0);return returnResult(need);};",
				"title": {
					"en": "Children's Education",
					"zh-Hans": "å­å¥³æ•™è‚²",
					"zh-Hant": "å­å¥³æ•™è‚²"
				}
			},
			{
				"boxRegularWidth": 261,
				"desc": {
					"en": "Start planning for the retirement you want",
					"zh-Hans": "å¼€å§‹ç­¹åˆ’ç†æƒ³çš„é€€ä¼‘ç”Ÿæ´»è®¡åˆ’",
					"zh-Hant": "é–‹å§‹ç±ŒåŠƒç†æƒ³çš„é€€ä¼‘ç”Ÿæ´»è¨ˆåŠƒ"
				},
				"guide": [{
					"image": "needsRetirementExtraInfo",
					"title": {
						"en": "LEARN ABOUT THE CHALLENGES OF RETIREMENT PLANNING",
						"zh-Hans": "é€€ä¼‘å‚¨å¤‡çš„æŒ‘æˆ˜",
						"zh-Hant": "é€€ä¼‘å„²å‚™çš„æŒ‘æˆ°"
					}
				}],
				"id": "retirement",
				"image": "needsRetire",
				"questions": [{
					"defaultValue": 65,
					"id": "retirementAge",
					"increment": 1,
					"isMandatory": true,
					"maxValue": 80,
					"minValue": 30,
					"title": {
						"en": "When are you planning to retire?",
						"zh-Hans": "é¢„æœŸé€€ä¼‘å¹´é¾„?",
						"zh-Hant": "é æœŸé€€ä¼‘å¹´é½¡?"
					},
					"type": "stepper",
					"unit": {
						"en": " year(s)",
						"zh-Hans": "å¹´",
						"zh-Hant": "å¹´"
					}
				},
				{
					"defaultValue": 30,
					"id": "currentAge",
					"increment": 1,
					"isMandatory": true,
					"maxValue": 80,
					"minValue": 18,
					"title": {
						"en": "How old are you?",
						"zh-Hans": "ç¾æ™‚å¹´é¾„?",
						"zh-Hant": "ç¾æ™‚å¹´é½¡?"
					},
					"type": "stepper",
					"unit": {
						"en": " year(s) old",
						"zh-Hans": "å²",
						"zh-Hant": "æ­²"
					}
				},
				{
					"defaultValue": 0,
					"id": "moneySpending",
					"interval": 5000,
					"isMandatory": true,
					"leftImage": "one_coin",
					"maxValue": 50000,
					"numberEditable": true,
					"rightImage": "three_coins",
					"title": {
						"en": "How much do you need per month after you retire?",
						"zh-Hans": "æ‚¨é¢„è®¡é€€ä¼‘åŽæ¯æœˆéœ€è¦å¤šå°‘æ”¶å…¥åº”ä»˜ç”Ÿæ´»å¼€æ”¯?",
						"zh-Hant": "æ‚¨é è¨ˆé€€ä¼‘å¾Œæ¯æœˆéœ€è¦å¤šå°‘æ”¶å…¥æ‡‰ä»˜ç”Ÿæ´»é–‹æ”¯?"
					},
					"type": "normalSlider",
					"unit": "dollar"
				},
				{
					"id": "numberOfYearsSpending",
					"increment": 1,
					"isMandatory": true,
					"maxValue": 50,
					"minValue": 1,
					"title": {
						"en": "How many years will you need this money for?",
						"zh-Hans": "é¢„ç®—é€€ä¼‘åŽç”Ÿæ´»å¹´æœŸ?",
						"zh-Hant": "é ç®—é€€ä¼‘å¾Œç”Ÿæ´»å¹´æœŸ?"
					},
					"type": "stepper",
					"unit": {
						"en": " year(s)",
						"zh-Hans": "å¹´",
						"zh-Hant": "å¹´"
					}
				},
				{
					"defaultValue": 0,
					"id": "lumpSum",
					"interval": 100000,
					"isMandatory": true,
					"leftImage": "one_coin",
					"maxValue": 1000000,
					"numberEditable": true,
					"rightImage": "three_coins",
					"title": {
						"en": "How much will you need for lump-sum expenses?",
						"zh-Hans": "æ‚¨é€€ä¼‘æ—¶éœ€è¦éœ€è¦ä¸€æ¬¡æ€§çš„å¼€æ”¯å—?",
						"zh-Hant": "æ‚¨é€€ä¼‘æ™‚éœ€è¦éœ€è¦ä¸€æ¬¡æ€§çš„é–‹æ”¯å—Ž?"
					},
					"type": "normalSlider",
					"unit": "dollar"
				},
				{
					"defaultValue": 0,
					"id": "preparedCapital",
					"interval": 100000,
					"isMandatory": true,
					"leftImage": "one_coin",
					"maxValue": 5000000,
					"numberEditable": true,
					"rightImage": "three_coins",
					"title": {
						"en": "How much capital have you set aside for your retirement or what is your current balance of your MPF scheme?",
						"zh-Hans": "æ‚¨çŽ°æœ‰å¤šå°‘é€€ä¼‘å‚¨å¤‡æˆ–å¼ºç§¯é‡‘çŽ°æ—¶ç»“å­˜?",
						"zh-Hant": "æ‚¨ç¾æœ‰å¤šå°‘é€€ä¼‘å„²å‚™æˆ–å¼·ç©é‡‘ç¾æ™‚çµå­˜?"
					},
					"type": "normalSlider",
					"unit": "dollar"
				},
				{
					"defaultValue": 0,
					"id": "preparedInsurance",
					"interval": 100000,
					"isMandatory": true,
					"leftImage": "one_coin",
					"maxValue": 5000000,
					"numberEditable": true,
					"rightImage": "three_coins",
					"title": {
						"en": "How much insurance coverage do you have for your retirement?",
						"zh-Hans": "æ‚¨çŽ°æœ‰å¤šå°‘é€€ä¼‘ä¿éšœ?",
						"zh-Hant": "æ‚¨ç¾æœ‰å¤šå°‘é€€ä¼‘ä¿éšœ?"
					},
					"type": "normalSlider",
					"unit": "dollar"
				}],
				"shortfallFunc": "function(needStr){ try{ eval('var need='+needStr);var values=need.values,moneySpending=values.moneySpending?values.moneySpending:0,retirementAge=values.retirementAge?values.retirementAge:0,currentAge=values.currentAge?values.currentAge:0,yearSpending=values.numberOfYearsSpending?values.numberOfYearsSpending:0,lumpSum=values.lumpSum?values.lumpSum:0,retirementCapital=values.preparedCapital?values.preparedCapital:0,retirementInsurance=values.preparedInsurance?values.preparedInsurance:0,inflat=need.inflation?need.inflation:0,afterYear=retirementAge-currentAge,i=inflat/100,total=(inflat==0)?moneySpending*12*yearSpending+lumpSum:(1-Math.pow(1+i,yearSpending))/-i * 12 * moneySpending*Math.pow(1+i,afterYear) + lumpSum*Math.pow(1+inflat/100,afterYear);var hasAmount=retirementInsurance+retirementCapital,shortfall=total-hasAmount;need.hasAmount=hasAmount,need.needAmount=total,0!=total?shortfall\u003e0?(need.status='Shortfall',need.shortfallAmount=shortfall):(need.status='Fulfilled',need.shortfallAmount=0):(need.status='None',need.shortfallAmount=0);} catch(ex) {debug.ex = ex} return returnResult(need);};",
				"title": {
					"en": "Retirement",
					"zh-Hans": "é€€ä¼‘è®¡åˆ’",
					"zh-Hant": "é€€ä¼‘è¨ˆåŠƒ"
				}
			},
			{
				"boxRegularWidth": 261,
				"desc": {
					"en": "Save now and bring your dreams to life",
					"zh-Hans": "å®žè·µå‚¨è“„å¤§è®¡, åŠ©æ‚¨å¼€æ‹“å…‰è¾‰æœªæ¥",
					"zh-Hant": "å¯¦è¸å„²è“„å¤§è¨ˆ, åŠ©æ‚¨é–‹æ‹“å…‰è¼æœªä¾†"
				},
				"footerMsg": {
					"en": "You need to save %@ a month in order to achieve your target in %@ year(s).",
					"zh-Hans": "ä½ éœ€è¦ä¸€ä¸ªæœˆå‚¨è“„%@ï¼Œä»Žè€Œåœ¨%@å¹´å†…è¾¾åˆ°æ‚¨çš„ç›®æ ‡ã€‚",
					"zh-Hant": "ä½ éœ€è¦ä¸€å€‹æœˆå„²è“„%@ï¼Œå¾žè€Œåœ¨%@å¹´å…§é”åˆ°æ‚¨çš„ç›®æ¨™ã€‚"
				},
				"guide": [{
					"image": "needsSavingExtraInfo",
					"title": {
						"en": "WHAT SHOULD I INVEST IN?",
						"zh-Hans": "æˆ‘åº”è¯¥æŠ•èµ„åœ¨å“ªäº›äº§å“ç´¯ç§¯è´¢å¯Œ?",
						"zh-Hant": "æˆ‘æ‡‰è©²æŠ•è³‡åœ¨é‚£äº›ç”¢å“ç´¯ç©è²¡å¯Œ?"
					}
				},
				{
					"content": {
						"en": "The rate of return for most investments is around 4â€“6%, depending on the risk you are willing to take.",
						"zh-Hans": "å¤§éƒ¨åˆ†æŠ•èµ„å›žæŠ¥çŽ‡çº¦ä¸º4-6ï¼…ï¼Œè¿™å–å†³äºŽä½ çš„é£Žé™©å–å‘ã€‚",
						"zh-Hant": "å¤§éƒ¨åˆ†æŠ•èµ„å›žæŠ¥çŽ‡çº¦ä¸º4-6ï¼…ï¼Œè¿™å–å†³äºŽä½ çš„é¢¨éšªå–å‘ã€‚"
					},
					"title": {
						"en": "EXPECTED RETURN RATE",
						"zh-Hans": "é¢„æœŸæ”¶ç›ŠçŽ‡",
						"zh-Hant": "é æœŸæ”¶ç›ŠçŽ‡"
					}
				}],
				"id": "saving",
				"image": "needsSaving",
				"questions": [{
					"boxRegularWidth": 192,
					"id": "savingObjectives",
					"isMandatory": true,
					"isSingleSelect": false,
					"options": [{
						"id": "home",
						"image": "home",
						"title": {
							"en": "Buy a home",
							"zh-Hans": "ä¹°æ¥¼ç½®ä¸š",
							"zh-Hant": "è²·æ¨“ç½®æ¥­"
						}
					},
					{
						"id": "car",
						"image": "car",
						"title": {
							"en": "Buy a car",
							"zh-Hans": "ä¹°è½¦",
							"zh-Hant": "è²·è»Š"
						}
					},
					{
						"id": "marry",
						"image": "marry",
						"title": {
							"en": "Get married",
							"zh-Hans": "æˆå®¶ç«‹å®¤",
							"zh-Hant": "æˆå®¶ç«‹å®¤"
						}
					},
					{
						"id": "education",
						"image": "education",
						"title": {
							"en": "Further my education",
							"zh-Hans": "ä¸ªäººè¿›ä¿®",
							"zh-Hant": "å€‹äººé€²ä¿®"
						}
					},
					{
						"id": "vacation",
						"image": "vacation",
						"title": {
							"en": "Go on a vacation",
							"zh-Hans": "æ—…è¡Œ",
							"zh-Hant": "æ—…è¡Œ"
						}
					},
					{
						"id": "others",
						"image": "others",
						"isOther": true,
						"otherInputType": "text",
						"title": {
							"en": "Others",
							"zh-Hans": "å…¶ä»–",
							"zh-Hant": "å…¶ä»–"
						}
					}],
					"title": {
						"en": "What are your objectives of saving?",
						"zh-Hans": "ä½ å‚¨è“„çš„ç›®çš„æ˜¯ä»€ä¹ˆ?",
						"zh-Hant": "ä½ å„²è“„çš„ç›®çš„æ˜¯ä»€éº¼?"
					},
					"type": "iconSelection"
				},
				{
					"defaultValue": 0,
					"id": "saveMoney",
					"interval": 100000,
					"isMandatory": true,
					"leftImage": "one_coin",
					"maxValue": 5000000,
					"numberEditable": true,
					"rightImage": "three_coins",
					"title": {
						"en": "How much do you need to achieve your objectives?",
						"zh-Hans": "æ‚¨éœ€è¦å¤šå°‘é‡‘é¢å®žçŽ°æ‚¨çš„ç›®æ ‡?",
						"zh-Hant": "æ‚¨éœ€è¦å¤šå°‘é‡‘é¡å¯¦ç¾æ‚¨çš„ç›®æ¨™?"
					},
					"type": "normalSlider",
					"unit": "dollar"
				},
				{
					"id": "savePeriod",
					"increment": 1,
					"isMandatory": true,
					"maxValue": 20,
					"minValue": 0,
					"title": {
						"en": "In how many years do you plan to use your savings?",
						"zh-Hans": "æ‚¨æ‰“ç®—åœ¨å¤šå°‘å¹´åŽä½¿ç”¨æ‚¨çš„å‚¨å¤‡é‡‘é¢?",
						"zh-Hant": "æ‚¨æ‰“ç®—åœ¨å¤šå°‘å¹´å¾Œä½¿ç”¨æ‚¨çš„å„²å‚™é‡‘é¡?"
					},
					"type": "stepper",
					"unit": {
						"en": " year(s)",
						"zh-Hans": "å¹´",
						"zh-Hant": "å¹´"
					}
				},
				{
					"id": "returnRate",
					"increment": 0.5,
					"isMandatory": true,
					"maxValue": 14.5,
					"minValue": 0,
					"title": {
						"en": "What is your expected return rate?",
						"zh-Hans": "æ‚¨é¢„æœŸæ”¶ç›ŠçŽ‡æ˜¯å¤šå°‘?",
						"zh-Hant": "æ‚¨é æœŸæ”¶ç›ŠçŽ‡æ˜¯å¤šå°‘?"
					},
					"type": "stepper",
					"unit": "%"
				},
				{
					"defaultValue": 0,
					"id": "preparedCapital",
					"interval": 100000,
					"isMandatory": true,
					"leftImage": "one_coin",
					"maxValue": 5000000,
					"numberEditable": true,
					"rightImage": "three_coins",
					"title": {
						"en": "How much capital have you set aside for your objectives?",
						"zh-Hans": "æ‚¨çŽ°æœ‰å¤šå°‘å‚¨å¤‡?",
						"zh-Hant": "æ‚¨ç¾æœ‰å¤šå°‘å„²å‚™?"
					},
					"type": "normalSlider",
					"unit": "dollar"
				}],
				"shortfallFunc": "function(needStr){try{eval('var need='+needStr);var values=need.values,savingMoney=values.saveMoney?values.saveMoney:0,years=values.savePeriod?values.savePeriod:0,inflat=need.inflation?need.inflation:0,returnRate=values.returnRate?values.returnRate:0,preparedCapital=values.preparedCapital?values.preparedCapital:0;need.years=years,need.needAmount=savingMoney,need.hasAmount=preparedCapital;var inc=(returnRate-inflat)/100.0/12.0,total=(returnRate==inflat)?years*12:(Math.pow(1+inc, years*12)-1)/inc, shortfall=savingMoney-preparedCapital,monthly=shortfall/ total;need.monthlyPremium=monthly;if(0!=shortfall){if(shortfall\u003e0){(need.status='Shortfall',need.shortfallAmount=shortfall)}else{(need.status='Fulfilled',need.shortfallAmount=0)}}else{(need.status='None',need.shortfallAmount=0);}}catch(ex){debug.ex=ex;}                return returnResult(need);}",
				"title": {
					"en": "Savings",
					"zh-Hans": "å‚¨è“„è®¡åˆ’",
					"zh-Hant": "å„²è“„è¨ˆåŠƒ"
				}
			}]
		},
		"bgColor": "#D1DCE6",
		"bgImage": "needsAnalysis",
		"buttonContinue": {
			"en": "Continue",
			"zh-Hans": "ç»§ç»­",
			"zh-Hant": "ç¹¼çºŒ"
		},
		"buttonStart": {
			"en": "Start",
			"zh-Hans": "å¼€å§‹",
			"zh-Hant": "é–‹å§‹"
		},
		"buttonView": {
			"en": "Edit",
			"zh-Hans": "ç¼–è¾‘",
			"zh-Hant": "ç¼–è¾‘"
		},
		"content": {
			"en": "Find out how much coverage you need to meet your objectives.",
			"zh-Hans": "åˆ†æžæ‚¨åœ¨äººç”Ÿé˜¶æ®µè·¯ä¸Šä¸åŒçš„éœ€è¦æ‰€éœ€çš„å‚¨å¤‡,ä»Žè€ŒåŠæ—©ä¸ºæœªæ¥ä½œå‡ºå‡†å¤‡ã€‚",
			"zh-Hant": "åˆ†æžæ‚¨åœ¨äººç”ŸéšŽæ®µè·¯ä¸Šä¸åŒçš„éœ€è¦æ‰€éœ€çš„å„²å‚™,å¾žè€ŒåŠæ—©ç‚ºæœªä¾†ä½œå‡ºæº–å‚™ã€‚"
		},
		"contentLastCompleted": {
			"en": "Last completed on ",
			"zh-Hans": "æœ€åŽåˆ°è®¿æ—¥æœŸ",
			"zh-Hant": "æœ€å¾Œåˆ°è¨ªæ—¥æœŸ "
		},
		"expMonths": 10,
		"id": "needsAnal",
		"template": "needAnalysisTmpl",
		"title": {
			"en": "Needs Analysis",
			"zh-Hans": "éœ€æ±‚åˆ†æž",
			"zh-Hant": "éœ€æ±‚åˆ†æž"
		}
	},
	{
		"bgColor": "#BFCFC8",
		"bgImage": "needsRiskAssessment",
		"buttonContinue": {
			"en": "Continue",
			"zh-Hans": "ç»§ç»­",
			"zh-Hant": "ç¹¼çºŒ"
		},
		"buttonStart": {
			"en": "Start",
			"zh-Hans": "å¼€å§‹",
			"zh-Hant": "é–‹å§‹"
		},
		"buttonView": {
			"en": "Edit",
			"zh-Hans": "ç¼–è¾‘",
			"zh-Hant": "ç¼–è¾‘"
		},
		"content": {
			"en": "Assess your risk tolerance towards investing.",
			"zh-Hans": "è¯„ä¼°ä½ çš„æŠ•èµ„é£Žé™©æ‰¿å—èƒ½åŠ›",
			"zh-Hant": "è©•ä¼°ä½ çš„æŠ•è³‡é¢¨éšªæ‰¿å—èƒ½åŠ›"
		},
		"contentLastCompleted": {
			"en": "Last completed on ",
			"zh-Hans": "æœ€åŽåˆ°è®¿æ—¥æœŸ",
			"zh-Hant": "æœ€å¾Œåˆ°è¨ªæ—¥æœŸ "
		},
		"expMonths": 15,
		"id": "riskAssess",
		"riskData": {
			"calRiskFunc": "function(rAns, rQuests){eval('var riskAns='+rAns);eval('var riskQuestions='+rQuests);var total=0,completed=!0;for(i=0;i\u003criskQuestions.length;i++){var id=riskQuestions[i],ans=riskAns[id];ans?total+=ans:completed=!1}completed||(total=0);var rank=0;total\u003e16?rank=4:total\u003e12?rank=3:total\u003e8?rank=2:total\u003e0\u0026\u0026(rank=1);riskAns['rank']=rank;return returnResult(riskAns);};",
			"questions": [{
				"id": "r1",
				"inputType": "multiSelect",
				"options": [{
					"code": "1",
					"text": {
						"en": "I do not have any investment experience.",
						"zh-Hans": "æˆ‘æ²¡æœ‰ä»»ä½•æŠ•èµ„ç»éªŒã€‚",
						"zh-Hant": "æˆ‘æ²’æœ‰ä»»ä½•æŠ•è³‡ç¶“é©—ã€‚"
					}
				},
				{
					"code": "2",
					"text": {
						"en": "I have less than 2 years of investment experience.",
						"zh-Hans": "æˆ‘æœ‰ä¸¤å¹´ä»¥å†…çš„æŠ•èµ„ç»éªŒã€‚",
						"zh-Hant": "æˆ‘æœ‰å…©å¹´ä»¥å…§çš„æŠ•è³‡ç¶“é©—ã€‚"
					}
				},
				{
					"code": "3",
					"text": {
						"en": "I have 2 to 5 years of investment experience.",
						"zh-Hans": "æˆ‘æœ‰ä¸¤å¹´è‡³äº”å¹´ä»¥å†…çš„æŠ•èµ„ç»éªŒã€‚",
						"zh-Hant": "æˆ‘æœ‰å…©å¹´è‡³äº”å¹´ä»¥å…§çš„æŠ•è³‡ç¶“é©—ã€‚"
					}
				},
				{
					"code": "4",
					"text": {
						"en": "I have more than 5 years of investment experience.",
						"zh-Hans": "æˆ‘æœ‰äº”å¹´ä»¥ä¸Šçš„æŠ•èµ„ç»éªŒã€‚",
						"zh-Hant": "æˆ‘æœ‰äº”å¹´ä»¥ä¸Šçš„æŠ•è³‡ç¶“é©—ã€‚"
					}
				}],
				"title": {
					"en": "How many years of investment experience do you have?",
					"zh-Hans": "æ‚¨æœ‰å¤šå°‘å¹´çš„æŠ•èµ„ç»éªŒ?",
					"zh-Hant": "æ‚¨æœ‰å¤šå°‘å¹´çš„æŠ•è³‡ç¶“é©—?"
				}
			},
			{
				"id": "r2",
				"inputType": "multiSelect",
				"options": [{
					"code": "1",
					"text": {
						"en": "In less than 3 years.",
						"zh-Hans": "ä¸‰å¹´ä»¥å†…ã€‚",
						"zh-Hant": "ä¸‰å¹´ä»¥å…§ã€‚"
					}
				},
				{
					"code": "2",
					"text": {
						"en": "In 3 to 6 years.",
						"zh-Hans": "ä¸‰è‡³å…­å¹´ä»¥å†…ã€‚",
						"zh-Hant": "ä¸‰è‡³å…­å¹´ä»¥å…§ã€‚"
					}
				},
				{
					"code": "3",
					"text": {
						"en": "In 7 to 10 years.",
						"zh-Hans": "ä¸ƒè‡³åå¹´ä»¥å†…ã€‚",
						"zh-Hant": "ä¸ƒè‡³åå¹´ä»¥å…§ã€‚"
					}
				},
				{
					"code": "4",
					"text": {
						"en": "In 10 years or later.",
						"zh-Hans": "è¶…è¿‡åå¹´å¾Œã€‚",
						"zh-Hant": "è¶…éŽåå¹´å¾Œã€‚"
					}
				}],
				"title": {
					"en": "When do you plan to retire?",
					"zh-Hans": "æ‚¨æ‰“ç®—åœ¨ä»€ä¹ˆæ—¶å€™é€€ä¼‘?",
					"zh-Hant": "æ‚¨æ‰“ç®—åœ¨ä»€éº¼æ™‚ä¾¯é€€ä¼‘?"
				}
			},
			{
				"id": "r3",
				"inputType": "multiSelect",
				"options": [{
					"code": "1",
					"text": {
						"en": "Less than 10%.",
						"zh-Hans": "å°‘äºŽ10%ã€‚",
						"zh-Hant": "å°‘æ–¼10%ã€‚"
					}
				},
				{
					"code": "2",
					"text": {
						"en": "About 10% to 25%.",
						"zh-Hans": "å¤§çº¦10%-20%ã€‚",
						"zh-Hant": "å¤§ç´„10%-20%ã€‚"
					}
				},
				{
					"code": "3",
					"text": {
						"en": "About 25% to 50%.",
						"zh-Hans": "å¤§çº¦25%-50%ã€‚",
						"zh-Hant": "å¤§ç´„25%-50%ã€‚"
					}
				},
				{
					"code": "4",
					"text": {
						"en": "More than 50%",
						"zh-Hans": "è¶…è¿‡50%ã€‚",
						"zh-Hant": "è¶…éŽ50%ã€‚"
					}
				}],
				"title": {
					"en": "What percentage of your monthly income goes towards debt payment (including home mortgage, credit card repayment, etc.)?",
					"zh-Hans": "æ‚¨æ¯æœˆå¿è¿˜å€ºåŠ¡ï¼ˆåŒ…æ‹¬æŒ‰æ­ä¾›æ¬¾ï¼Œä¿¡ç”¨å¡è¿˜æ¬¾ç­‰ï¼‰å æ‚¨æ”¶å…¥ç™¾ä»½æ¯”çš„å¤šå°‘?",
					"zh-Hant": "æ‚¨æ¯æœˆå„Ÿé‚„å‚µå‹™ï¼ˆåŒ…æ‹¬æŒ‰æ­ä¾›æ¬¾ï¼Œä¿¡ç”¨å¡é‚„æ¬¾ç­‰ï¼‰ä½”æ‚¨æ”¶å…¥ç™¾ä»½æ¯”çš„å¤šå°‘?"
				}
			},
			{
				"id": "r4",
				"inputType": "multiSelect",
				"options": [{
					"code": "1",
					"text": {
						"en": "Little or lack of investment experience.",
						"zh-Hans": "å¾ˆå°‘æˆ–ç¼ºä¹æŠ•èµ„ç»éªŒã€‚",
						"zh-Hant": "å¾ˆå°‘æˆ–ç¼ºä¹æŠ•è³‡ç¶“é©—ã€‚"
					}
				},
				{
					"code": "2",
					"text": {
						"en": "Mainly bank deposits or currency investments.",
						"zh-Hans": "ä¸»è¦æ˜¯é“¶è¡Œå­˜æ¬¾å’Œè´§å¸æŠ•èµ„ã€‚",
						"zh-Hant": "ä¸»è¦æ˜¯éŠ€è¡Œå­˜æ¬¾å’Œè²¨å¹£æŠ•è³‡ã€‚"
					}
				},
				{
					"code": "3",
					"text": {
						"en": "A mix of currency market, bond and stock investments and/or mutual funds.",
						"zh-Hans": "è´§å¸å¸‚åœºï¼Œå€ºåˆ¸å’Œè‚¡ç¥¨æŠ•èµ„å’Œ/æˆ–äº’æƒ åŸºé‡‘çš„ç»„åˆã€‚",
						"zh-Hant": "è²¨å¹£å¸‚å ´ï¼Œå‚µåˆ¸å’Œè‚¡ç¥¨æŠ•è³‡å’Œ/æˆ–äº’æƒ åŸºé‡‘çš„çµ„åˆã€‚"
					}
				},
				{
					"code": "4",
					"text": {
						"en": "Mostly stocks or stock mutual funds.",
						"zh-Hans": "å¤šç‚ºè‚¡ç¥¨æˆ–äº’æƒ åŸºé‡‘ã€‚",
						"zh-Hant": "å¤šç‚ºè‚¡ç¥¨æˆ–äº’æƒ åŸºé‡‘ã€‚"
					}
				}],
				"title": {
					"en": "Which of the following is the best description of your current investments?",
					"zh-Hans": "ä»¥ä¸‹å“ªé¡¹æ˜¯æ‚¨ç›®å‰æŠ•èµ„çš„æœ€å¥½çš„è¯´æ˜Ž?",
					"zh-Hant": "ä»¥ä¸‹å“ªé …æ˜¯æ‚¨ç›®å‰æŠ•è³‡çš„æœ€å¥½çš„èªªæ˜Ž?"
				}
			},
			{
				"id": "r5",
				"inputType": "multiSelect",
				"options": [{
					"code": "1",
					"text": {
						"en": "I expect the value of my investment savings will not drop.",
						"zh-Hans": "æˆ‘é¢„æœŸæˆ‘æŠ•èµ„å‚¨è“„çš„ä»·å€¼ä¸ä¼šä¸‹é™ã€‚",
						"zh-Hant": "æˆ‘é æœŸæˆ‘æŠ•è³‡å„²è“„çš„åƒ¹å€¼ä¸æœƒä¸‹é™ã€‚"
					}
				},
				{
					"code": "2",
					"text": {
						"en": "I expect growth in capital but stability is in equal importance because I will be uncomfortable with market fluctuations.",
						"zh-Hans": "æˆ‘é¢„æœŸæŠ•èµ„å‚¨è“„çš„ç¨³å®šå¢žé•¿ï¼Œå› ä¸ºæˆ‘ä¸èƒ½æŽ¥å—å¸‚åœºæ³¢åŠ¨ã€‚",
						"zh-Hant": "æˆ‘é æœŸæŠ•è³‡å„²è“„çš„ç©©å®šå¢žé•·ï¼Œå› ç‚ºæˆ‘ä¸èƒ½æŽ¥å—å¸‚å ´æ³¢å‹•ã€‚"
					}
				},
				{
					"code": "3",
					"text": {
						"en": "I expect growth in capital, I am less concerned about short to medium-term market fluctuations.",
						"zh-Hans": "æˆ‘é¢„æœŸæŠ•èµ„å‚¨è“„çš„å¢žé•¿ï¼Œæˆ‘ä¸å¤ªå…³å¿ƒçŸ­æœŸè‡³ä¸­æœŸå¸‚åœºæ³¢åŠ¨ã€‚",
						"zh-Hant": "æˆ‘é æœŸæŠ•è³‡å„²è“„çš„å¢žé•·ï¼Œæˆ‘ä¸å¤ªé—œå¿ƒçŸ­æœŸè‡³ä¸­æœŸå¸‚å ´æ³¢å‹•ã€‚"
					}
				},
				{
					"code": "4",
					"text": {
						"en": "I definitely expect growth in capital over the long run. Market fluctuations do not bother me at all.",
						"zh-Hans": "æˆ‘é¢„æœŸæŠ•èµ„å‚¨è“„çš„é•¿è¿œå¢žé•¿ï¼Œå¸‚åœºæ³¢åŠ¨ä¸ä¼šå½±å“æˆ‘æŠ•èµ„å†³å®šã€‚",
						"zh-Hant": "æˆ‘é æœŸæŠ•è³‡å„²è“„çš„é•·é å¢žé•·ï¼Œå¸‚å ´æ³¢å‹•ä¸æœƒå½±éŸ¿æˆ‘æŠ•è³‡æ±ºå®šã€‚"
					}
				}],
				"title": {
					"en": "Which of the following statement best describes your long-term investment planning?",
					"zh-Hans": "ä»¥ä¸‹å“ªé¡¹é™ˆè¿°æœ€å‡†ç¡®åœ°æè¿°ä½ çš„é•¿æœŸæŠ•èµ„è§„åˆ’?",
					"zh-Hant": "ä»¥ä¸‹å“ªé …é™³è¿°æœ€æº–ç¢ºåœ°æè¿°ä½ çš„é•·æœŸæŠ•è³‡è¦åŠƒ?"
				}
			}],
			"riskAssessHeader": {
				"en": "Risk and return go hand in hand.\nAnswer a few questions to find out what your risk tolerance is.",
				"zh-Hans": "æŠ•èµ„æ¶‰åŠé£Žé™©ï¼ŒæŠ•èµ„ä»·å€¼åŠæ”¶ç›Šå¯è·Œäº¦å¯å‡ã€‚\nå›žç­”å‡ ä¸ªé—®é¢˜ï¼Œæ‰¾å‡ºæ‚¨èƒ½æ‰¿æ‹…çš„çš„é£Žé™©ç¨‹åº¦ã€‚",
				"zh-Hant": "æŠ•è³‡æ¶‰åŠé¢¨éšªï¼ŒæŠ•è³‡åƒ¹å€¼åŠæ”¶ç›Šå¯è·Œäº¦å¯å‡ã€‚\nå›žç­”å¹¾å€‹å•é¡Œï¼Œæ‰¾å‡ºæ‚¨èƒ½æ‰¿æ“”çš„çš„é¢¨éšªç¨‹åº¦ã€‚"
			},
			"titleText": [{
				"desc": {
					"en": "What is your risk tolerance towards investing?",
					"zh-Hans": "\u003cmeta charset=\"UTF-8\"\u003e\u003cb\u003eæ‚¨çš„é£Žé™©æ‰¿å—èƒ½åŠ›æ˜¯ä»€ä¹ˆ?\u003c/b\u003e",
					"zh-Hant": "\u003cmeta charset=\"UTF-8\"\u003e\u003cb\u003eæ‚¨çš„é¢¨éšªæ‰¿å—èƒ½åŠ›æ˜¯ä»€éº¼?\u003c/b\u003e"
				},
				"riskTxt": {
					"en": "\u003cb\u003ePlease complete the risk assessment to see your risk tolerance.\u003c/b\u003e",
					"zh-Hans": "\u003cmeta charset=\"UTF-8\"\u003e\u003cb\u003eè¯·å¡«å†™é£Žé™©è¯„ä¼°ï¼Œæ‰¾å‡ºæ‚¨èƒ½æ‰¿æ‹…çš„çš„é£Žé™©ç¨‹åº¦ã€‚\u003c/b\u003e",
					"zh-Hant": "\u003cmeta charset=\"UTF-8\"\u003e\u003cb\u003eè«‹å¡«å¯«é¢¨éšªè©•ä¼°ï¼Œæ‰¾å‡ºæ‚¨èƒ½æ‰¿æ“”çš„çš„é¢¨éšªç¨‹åº¦ã€‚\u003c/b\u003e"
				}
			},
			{
				"desc": {
					"en": "You are a preservative investor. You need stability and may accept investment to be growing slowly but steadily in pace with low inflation. You become very concerned if prices move up and down and you are unable to tolerate price volatility.",
					"zh-Hans": "æ‚¨æ˜¯ä¸€åä¿æœ¬åž‹çš„æŠ•èµ„è€…ã€‚æ‚¨éœ€è¦è¸å®žçš„æŠ•èµ„,æ‚¨å¯ä»¥æŽ¥å—å¢žé•¿è¾ƒç¼“å¹¶ä¸Žä½Žé€šèƒ€ç¨³å®šæ¸è¿›çš„æŠ•èµ„å›žæŠ¥æ­¥ã€‚æ‚¨ä¼šå› ä»·æ ¼çš„ä¸Šè½è€Œéžå¸¸æ“å¿ƒ,åŒæ—¶ä¸èƒ½å¿å—ä»·æ ¼çš„æ³¢åŠ¨ã€‚",
					"zh-Hant": "æ‚¨æ˜¯ä¸€åä¿æœ¬åž‹çš„æŠ•è³‡è€…ã€‚æ‚¨éœ€è¦è¸å¯¦çš„æŠ•è³‡,æ‚¨å¯ä»¥æŽ¥å—å¢žé•·è¼ƒç·©ä¸¦èˆ‡ä½Žé€šè„¹ç©©å®šæ¼¸é€²çš„æŠ•è³‡å›žå ±æ­¥ã€‚æ‚¨æœƒå› åƒ¹æ ¼çš„ä¸Šè½è€Œéžå¸¸æ“å¿ƒ,åŒæ™‚ä¸èƒ½å¿å—åƒ¹æ ¼çš„æ³¢å‹•ã€‚"
				},
				"riskTxt": {
					"en": "\u003cb\u003eYour risk tolerance is \u003cfont color='#D53B4A'\u003elow\u003c/font\u003e\u003c/b\u003e",
					"zh-Hans": "\u003cmeta charset=\"UTF-8\"\u003e\u003cb\u003eæ‚¨çš„é£Žé™©æ‰¿å—èƒ½åŠ›ä¸º \u003cfont color='#D53B4A'\u003eä½Žé£Žé™©\u003c/font\u003e\u003c/b\u003e",
					"zh-Hant": "\u003cmeta charset=\"UTF-8\"\u003e\u003cb\u003eæ‚¨çš„é¢¨éšªæ‰¿å—èƒ½åŠ›ç‚º \u003cfont color='#D53B4A'\u003eä½Žé¢¨éšª\u003c/font\u003e\u003c/b\u003e"
				}
			},
			{
				"desc": {
					"en": "You are a moderator investor. You like stability, you may accept investment to be growing slowly but steadily in pace with low inflation. You are willing to accept lower return to minimize uncertainty and price fluctuation. ",
					"zh-Hans": "æ‚¨æ˜¯ä¸€åèŠ‚åˆ¶åž‹çš„æŠ•èµ„è€…ã€‚æ‚¨å–œæ¬¢è¸å®žçš„æŠ•èµ„,æ‚¨å¯ä»¥æŽ¥å—å¢žé•¿è¾ƒç¼“å¹¶ä¸Žä½Žé€šèƒ€ç¨³å®šæ¸è¿›çš„æŠ•èµ„å›žæŠ¥æ­¥ã€‚æ‚¨æ„¿æ„æŽ¥å—è¾ƒä½Žçš„å›žæŠ¥ä»¥å°†ä¸ç¨³å®šæƒ…å†µåŠä»·æ ¼æ³¢å¹…å‡ä½Žã€‚",
					"zh-Hant": "æ‚¨æ˜¯ä¸€åç¯€åˆ¶åž‹çš„æŠ•è³‡è€…ã€‚æ‚¨å–œæ­¡è¸å¯¦çš„æŠ•è³‡,æ‚¨å¯ä»¥æŽ¥å—å¢žé•·è¼ƒç·©ä¸¦èˆ‡ä½Žé€šè„¹ç©©å®šæ¼¸é€²çš„æŠ•è³‡å›žå ±æ­¥ã€‚æ‚¨é¡˜æ„æŽ¥å—è¼ƒä½Žçš„å›žå ±ä»¥å°‡ä¸ç©©å®šæƒ…æ³åŠåƒ¹æ ¼æ³¢å¹…æ¸›ä½Žã€‚"
				},
				"riskTxt": {
					"en": "\u003cb\u003eYour risk tolerance is \u003cfont color='#D53B4A'\u003elow to medium\u003c/font\u003e\u003c/b\u003e",
					"zh-Hans": "\u003cmeta charset=\"UTF-8\"\u003e\u003cb\u003eæ‚¨çš„é£Žé™©æ‰¿å—èƒ½åŠ›ä¸º \u003cfont color='#D53B4A'\u003eä½Žè‡³ä¸­é£Žé™©\u003c/font\u003e\u003c/b\u003e",
					"zh-Hant": "\u003cmeta charset=\"UTF-8\"\u003e\u003cb\u003eæ‚¨çš„é¢¨éšªæ‰¿å—èƒ½åŠ›ç‚º \u003cfont color='#D53B4A'\u003eä½Žè‡³ä¸­é¢¨éšª\u003c/font\u003e\u003c/b\u003e"
				}
			},
			{
				"desc": {
					"en": "You are a balanced investor. Although you like stability, you also seek slightly higher profits. You do not mind a slight fluctuations in prices, but would become worried if prices were to go up and down dramatically.",
					"zh-Hans": "æ‚¨æ˜¯ä¸€åç¨³å¥åž‹çš„æŠ•èµ„è€…ã€‚æ™®éæ¥è¯´,æ‚¨å–œæ¬¢ç¨³å¥çš„æŠ•èµ„,ä½†åŒæ—¶äº¦å¸Œæœ›èŽ·å–ç¨é«˜çš„å›žæŠ¥ã€‚æ‚¨ä¸ä»‹æ„ä»·æ ¼æœ‰è½»å¾®æµ®åŠ¨, ä½†ä»·æ ¼å¤§å¹…ä¸Šè½æ—¶æ‚¨ä¼šæ„Ÿåˆ°å¿§è™‘ã€‚",
					"zh-Hant": "æ‚¨æ˜¯ä¸€åç©©å¥åž‹çš„æŠ•è³‡è€…ã€‚æ™®éä¾†èªª,æ‚¨å–œæ­¡ç©©å¥çš„æŠ•è³‡,ä½†åŒæ™‚äº¦å¸Œæœ›ç²å–ç¨é«˜çš„å›žå ±ã€‚æ‚¨ä¸ä»‹æ„åƒ¹æ ¼æœ‰è¼•å¾®æµ®å‹•, ä½†åƒ¹æ ¼å¤§å¹…ä¸Šè½æ™‚æ‚¨æœƒæ„Ÿåˆ°æ†‚æ…®ã€‚"
				},
				"riskTxt": {
					"en": "\u003cb\u003eYour risk tolerance is \u003cfont color='#D53B4A'\u003emedium to high\u003c/font\u003e\u003c/b\u003e",
					"zh-Hans": "\u003cmeta charset=\"UTF-8\"\u003e\u003cb\u003eæ‚¨çš„é£Žé™©æ‰¿å—èƒ½åŠ›ä¸º \u003cfont color='#D53B4A'\u003eä¸­è‡³é«˜é£Žé™©\u003c/font\u003e\u003c/b\u003e",
					"zh-Hant": "\u003cmeta charset=\"UTF-8\"\u003e\u003cb\u003eæ‚¨çš„é¢¨éšªæ‰¿å—èƒ½åŠ›ç‚º \u003cfont color='#D53B4A'\u003eä¸­è‡³é«˜é¢¨éšª\u003c/font\u003e\u003c/b\u003e"
				}
			},
			{
				"desc": {
					"en": "You are by nature an aggressive investor. You want to maximize your return and you can ideal with uncertainty. You accept large swings in prices because you know that historically, high risk means high return in the long run.",
					"zh-Hans": "æ‚¨æ˜¯ä¸€åè¿›å–åž‹çš„æŠ•èµ„è€…ã€‚æ‚¨å¸Œæœ›èµšå–æœ€å¤šå›žæŠ¥,å¹¶å¯åº”ä»˜ä¸ç¨³å®šæƒ…å†µã€‚æ‚¨äº†è§£å¹¶æŽ¥çº³ä»·æ ¼ä¼šå¤§å¹…ä¸Šè½,å› ä¸ºæŒ‰ç…§è¿‡å¾€çš„è¡¨çŽ°,æ‚¨çŸ¥é“é•¿è¿œæ¥è¯´,é«˜é£Žé™©ç­‰äºŽé«˜å›žæŠ¥ã€‚",
					"zh-Hant": "æ‚¨æ˜¯ä¸€åé€²å–åž‹çš„æŠ•è³‡è€…ã€‚æ‚¨å¸Œæœ›è³ºå–æœ€å¤šå›žå ±,ä¸¦å¯æ‡‰ä»˜ä¸ç©©å®šæƒ…æ³ã€‚æ‚¨äº†è§£ä¸¦æŽ¥ç´åƒ¹æ ¼æœƒå¤§å¹…ä¸Šè½,å› ç‚ºæŒ‰ç…§éŽå¾€çš„è¡¨ç¾,æ‚¨çŸ¥é“é•·é ä¾†èªª,é«˜é¢¨éšªç­‰æ–¼é«˜å›žå ±ã€‚"
				},
				"riskTxt": {
					"en": "\u003cb\u003eYour risk tolerance is \u003cfont color='#D53B4A'\u003ehigh\u003c/font\u003e\u003c/b\u003e",
					"zh-Hans": "\u003cmeta charset=\"UTF-8\"\u003e\u003cb\u003eæ‚¨çš„é£Žé™©æ‰¿å—èƒ½åŠ›ä¸º \u003cfont color='#D53B4A'\u003eé«˜é£Žé™©\u003c/font\u003e\u003c/b\u003e",
					"zh-Hant": "\u003cmeta charset=\"UTF-8\"\u003e\u003cb\u003eæ‚¨çš„é¢¨éšªæ‰¿å—èƒ½åŠ›ç‚º \u003cfont color='#D53B4A'\u003eé«˜é¢¨éšª\u003c/font\u003e\u003c/b\u003e"
				}
			}]
		},
		"template": "rowSelectionQuestionTmpl",
		"title": {
			"en": "Risk Assessment",
			"zh-Hans": "é£Žé™©è¯„ä¼°",
			"zh-Hant": "é¢¨éšªè©•ä¼°"
		}
	}],
	"needsLandingTitle": [{
		"button": {
			"en": "Learn More",
			"zh-Hans": "äº†è§£æ›´å¤š",
			"zh-Hant": "äº†è§£æ›´å¤š"
		},
		"content": {
			"en": "Life insurance can help you fulfil the needs of your loved ones and\nyour personal ambitions.",
			"zh-Hans": "äººå¯¿ä¿é™©å¯ä»¥å¸®åŠ©æ‚¨ç§¯ç´¯è´¢å¯Œï¼ŒåŒæ—¶ç»™å®¶äººæœ€å¥½çš„ä¿æŠ¤ã€‚",
			"zh-Hant": "äººå£½ä¿éšªå¯ä»¥å¹«åŠ©æ‚¨ç©ç´¯è²¡å¯Œï¼ŒåŒæ™‚çµ¦å®¶äººæœ€å¥½çš„ä¿è­·ã€‚"
		},
		"id": "learnMore",
		"title": {
			"en": "Learn how life insurance can benefit you",
			"zh-Hans": "äº†è§£å¯¿é™©å¦‚ä½•ä½¿æ‚¨å—ç›Š",
			"zh-Hant": "äº†è§£å£½éšªå¦‚ä½•ä½¿æ‚¨å—ç›Š"
		}
	},
	{
		"button": {
			"en": "Recommend Products",
			"zh-Hans": "äº§å“å»ºè®®",
			"zh-Hant": "ç”¢å“å»ºè­°"
		},
		"content": {
			"en": "We're happy to recommend products to you based on your financial evaluation,\nneeds analysis and risk assessment",
			"zh-Hans": "æ ¹æ®æ‚¨çš„è´¢åŠ¡è¯„ä»·,éœ€æ±‚åˆ†æžå’Œé£Žé™©è¯„ä¼°ï¼Œ\næˆ‘ä»¬å¾ˆé«˜å…´æä¾›ä»¥ä¸‹äº§å“å»ºè®®é…åˆæ‚¨æ‰€å…³æ³¨çš„éœ€è¦ã€‚",
			"zh-Hant": "æ ¹æ“šæ‚¨çš„è²¡å‹™è©•åƒ¹,éœ€æ±‚åˆ†æžå’Œé¢¨éšªè©•ä¼°ï¼Œ\næˆ‘å€‘å¾ˆé«˜èˆˆæä¾›ä»¥ä¸‹ç”¢å“å»ºè­°é…åˆæ‚¨æ‰€é—œæ³¨çš„éœ€è¦ã€‚"
		},
		"id": "recommendProducts",
		"title": {
			"en": "Our life insurance plans can help you achieve your goals.",
			"zh-Hans": "æˆ‘ä»¬çš„äººå¯¿ä¿é™©è®¡åˆ’å¯ä»¥å¸®åŠ©ä½ å®žçŽ°æ‚¨çš„ç›®æ ‡ã€‚",
			"zh-Hant": "æˆ‘å€‘çš„äººå£½ä¿éšªè¨ˆåŠƒå¯ä»¥å¹«åŠ©ä½ å¯¦ç¾æ‚¨çš„ç›®æ¨™ã€‚"
		}
	}],
	"summaryReport": {
		"declareAcknow": {
			"paragraph": [{
				"en": "(1) I HEREBY DECLARE AND AGREE on behalf of myself and other persons referred to in this application (hereinafter referred to as \"Relevant Persons\", \"We\", \"Our\" or \"Us\") (for the avoidance of doubt, the expressions \"Relevant Persons\", \"We\", \"Our\" or \"Us\" include myself and such other persons) that this Analysis and the results or answers provided by myself or the Relevant Persons therein serves only as a reference for my/our consideration. It does not constitute as an investment advice and should not be regarded as a recommendation, or an offer to sell or a solicitation to buy any insurance products or services. l/We represent that the information provided by me/us in this Analysis is true, accurate and complete to the best of my/our knowledge. The Company shall not be held responsible or liable for any loss incurred by me/us or any persons/parties in reliance on the accuracy or completeness of the information, results or answers provided by the Relevant Persons.",
				"zh-Hans": "(1)æœ¬äººè°¨æ­¤ä»£è¡¨æœ¬äººåŠå…¶ä»–åœ¨æ­¤å®¢æˆ·éœ€æ±‚åˆ†æžæåŠä¹‹äººå£«(ä¸‹ç§°ã€Œç›¸å…³äººå£«ã€æˆ–ã€Œæˆ‘ä»¬ã€)(ä¸ºå…å­˜ç–‘,ã€Œç›¸å…³äººå£«ã€æˆ–ã€Œæˆ‘ä»¬ã€æŒ‡åŒ…æ‹¬æœ¬äººåŠæ­¤å®¢æˆ·éœ€æ±‚åˆ†æžæåŠä¹‹å…¶ä»–äººå£«)å£°æ˜ŽåŠåŒæ„æœ¬äºº/ç›¸å…³äººå£«å°±æœ¬å®¢æˆ·éœ€æ±‚åˆ†æžæ‰€æä¾›ä¹‹ç»“æžœæˆ–ç­”æ¡ˆ, åªä¾›æˆ‘/æˆ‘ä»¬ä½œä¸ºä¸ªäººæŠ•èµ„å†³å®šçš„å‚è€ƒ, å¹¶ä¸å¯å½“ä¸ºæŠ•èµ„å»ºè®®åŠä¸å¯è§†ä¸ºå¯¹ä»»ä½•ä¿é™©â€‹â€‹äº§å“åŠæœåŠ¡çš„é”€åªæˆ–è¯±ä½¿è´­ä¹°ä¹‹é‚€è¯·ã€‚æˆ‘/æˆ‘ä»¬è¡¨ç¤ºæˆ‘/æˆ‘ä»¬åœ¨å®¢æˆ·éœ€æ±‚åˆ†æžæ‰€æä¾›çš„èµ„æ–™, å°±æˆ‘/æˆ‘ä»¬æ‰€çŸ¥æ‰€è¨€, å‡ä¸ºäº‹å®žä¹‹å…¨éƒ¨åŠç¡®å®žæ— è®¹ã€‚è´µå…¬å¸å°±ç›¸å…³äººå£«æ‰€æä¾›çš„èµ„æ–™ã€ç»“æžœæˆ–ç­”æ¡ˆä¹‹å‡†ç¡®æ€§æˆ–å®Œæ•´æ€§æˆ–å› è€Œå¯¼è‡´æˆ‘/æˆ‘ä»¬æˆ–ä»»ä½•äººå£«/ä¸€æ–¹æœ‰ä»»ä½•æŸå¤±å¹¶ä¸è´Ÿä¸Šä»»ä½•è´£ä»»æˆ–æ³•å¾‹è´£ä»»ã€‚",
				"zh-Hant": "(1)æœ¬äººè¬¹æ­¤ä»£è¡¨æœ¬äººåŠå…¶ä»–åœ¨æ­¤å®¢æˆ¶éœ€æ±‚åˆ†æžæåŠä¹‹äººå£«(ä¸‹ç¨±ã€Œç›¸é—œäººå£«ã€æˆ–ã€Œæˆ‘å€‘ã€)(ç‚ºå…å­˜ç–‘,ã€Œç›¸é—œäººå£«ã€æˆ–ã€Œæˆ‘å€‘ã€æŒ‡åŒ…æ‹¬æœ¬äººåŠæ­¤å®¢æˆ¶éœ€æ±‚åˆ†æžæåŠä¹‹å…¶ä»–äººå£«)è²æ˜ŽåŠåŒæ„æœ¬äºº/ç›¸é—œäººå£«å°±æœ¬å®¢æˆ¶éœ€æ±‚åˆ†æžæ‰€æä¾›ä¹‹çµæžœæˆ–ç­”æ¡ˆ, åªä¾›æˆ‘/æˆ‘å€‘ä½œç‚ºå€‹äººæŠ•è³‡æ±ºå®šçš„åƒè€ƒ, ä¸¦ä¸å¯ç•¶ç‚ºæŠ•è³‡å»ºè­°åŠä¸å¯è¦–ç‚ºå°ä»»ä½•ä¿éšªç”£å“åŠæœå‹™çš„éŠ·éš»æˆ–èª˜ä½¿è³¼è²·ä¹‹é‚€è«‹ã€‚ æˆ‘/æˆ‘å€‘è¡¨ç¤ºæˆ‘/æˆ‘å€‘åœ¨å®¢æˆ¶éœ€æ±‚åˆ†æžæ‰€æä¾›çš„è³‡æ–™, å°±æˆ‘/æˆ‘å€‘æ‰€çŸ¥æ‰€è¨€, å‡ç‚ºäº‹å¯¦ä¹‹å…¨éƒ¨åŠç¢ºå¯¦ç„¡è¨›ã€‚ è²´å…¬å¸å°±ç›¸é—œäººå£«æ‰€æä¾›çš„è³‡æ–™ã€çµæžœæˆ–ç­”æ¡ˆä¹‹æº–ç¢ºæ€§æˆ–å®Œæ•´æ€§æˆ–å› è€Œå°Žè‡´æˆ‘/æˆ‘å€‘æˆ–ä»»ä½•äººå£«/ä¸€æ–¹æœ‰ä»»ä½•æå¤±ä¸¦ä¸è² ä¸Šä»»ä½•è²¬ä»»æˆ–æ³•å¾‹è²¬ä»»ã€‚"
			},
			{
				"en": "(2) I, on behalf of myself and other persons referred to in this application (hereinafter referred to as \"We\" or \"Our\"), acknowledge that this form is supplemental to the application for insurance, change or reinstatement (the \"Application Form\") in relation to the above Application No/Policy No. signed by me/us. I agree and confirm that (1) to the best of my knowledge and belief the above statements and answers to all questions are true and complete; (2) We have not had any change in material facts and/or medical consultation since the date ljwe signed the Application Form of the above mentioned application; (3) the declarations, agreements and authorisations made by me/us under the Declaration \u0026 Authorisation Section and Personal Information Collection Statement Section of the Application Form shall also apply to this form; and (4) this statement shall form the basis and become a part of the policy to be issued/reinstated or issued by the Company.",
				"zh-Hans": "(2) æœ¬äººè°¨æ­¤ä»£è¡¨æœ¬äººåŠå…¶ä»–åœ¨æ­¤å®¢æˆ·éœ€æ±‚åˆ†æžæåŠä¹‹äººå£«(ä¸‹ç§°ã€Œç›¸å…³äººå£«ã€æˆ–ã€Œæˆ‘ä»¬ã€)(ä¸ºå…å­˜ç–‘,ã€Œç›¸å…³äººå£«ã€æˆ–ã€Œæˆ‘ä»¬ã€æŒ‡åŒ…æ‹¬æœ¬äººåŠæ­¤å®¢æˆ·éœ€æ±‚åˆ†æžæåŠä¹‹å…¶ä»–äººå£«)å£°æ˜ŽåŠåŒæ„æœ¬äºº/ç›¸å…³äººå£«å°±æœ¬å®¢æˆ·éœ€æ±‚åˆ†æžæ‰€æä¾›ä¹‹ç»“æžœæˆ–ç­”æ¡ˆ, åªä¾›æˆ‘/æˆ‘ä»¬ä½œä¸ºä¸ªäººæŠ•èµ„å†³å®šçš„å‚è€ƒ, å¹¶ä¸å¯å½“ä¸ºæŠ•èµ„å»ºè®®åŠä¸å¯è§†ä¸ºå¯¹ä»»ä½•ä¿é™©â€‹â€‹äº§å“åŠæœåŠ¡çš„é”€åªæˆ–è¯±ä½¿è´­ä¹°ä¹‹é‚€è¯·ã€‚æˆ‘/æˆ‘ä»¬è¡¨ç¤ºæˆ‘/æˆ‘ä»¬åœ¨å®¢æˆ·éœ€æ±‚åˆ†æžæ‰€æä¾›çš„èµ„æ–™, å°±æˆ‘/æˆ‘ä»¬æ‰€çŸ¥æ‰€è¨€, å‡ä¸ºäº‹å®žä¹‹å…¨éƒ¨åŠç¡®å®žæ— è®¹ã€‚è´µå…¬å¸å°±ç›¸å…³äººå£«æ‰€æä¾›çš„èµ„æ–™ã€ç»“æžœæˆ–ç­”æ¡ˆä¹‹å‡†ç¡®æ€§æˆ–å®Œæ•´æ€§æˆ–å› è€Œå¯¼è‡´æˆ‘/æˆ‘ä»¬æˆ–ä»»ä½•äººå£«/ä¸€æ–¹æœ‰ä»»ä½•æŸå¤±å¹¶ä¸è´Ÿä¸Šä»»ä½•è´£ä»»æˆ–æ³•å¾‹è´£ä»»ã€‚",
				"zh-Hant": "(2) æœ¬äººè¬¹æ­¤ä»£è¡¨æœ¬äººåŠå…¶ä»–åœ¨æ­¤å®¢æˆ¶éœ€æ±‚åˆ†æžæåŠä¹‹äººå£«(ä¸‹ç¨±ã€Œç›¸é—œäººå£«ã€æˆ–ã€Œæˆ‘å€‘ã€)(ç‚ºå…å­˜ç–‘,ã€Œç›¸é—œäººå£«ã€æˆ–ã€Œæˆ‘å€‘ã€æŒ‡åŒ…æ‹¬æœ¬äººåŠæ­¤å®¢æˆ¶éœ€æ±‚åˆ†æžæåŠä¹‹å…¶ä»–äººå£«)è²æ˜ŽåŠåŒæ„æœ¬äºº/ç›¸é—œäººå£«å°±æœ¬å®¢æˆ¶éœ€æ±‚åˆ†æžæ‰€æä¾›ä¹‹çµæžœæˆ–ç­”æ¡ˆ, åªä¾›æˆ‘/æˆ‘å€‘ä½œç‚ºå€‹äººæŠ•è³‡æ±ºå®šçš„åƒè€ƒ, ä¸¦ä¸å¯ç•¶ç‚ºæŠ•è³‡å»ºè­°åŠä¸å¯è¦–ç‚ºå°ä»»ä½•ä¿éšªç”£å“åŠæœå‹™çš„éŠ·éš»æˆ–èª˜ä½¿è³¼è²·ä¹‹é‚€è«‹ã€‚ æˆ‘/æˆ‘å€‘è¡¨ç¤ºæˆ‘/æˆ‘å€‘åœ¨å®¢æˆ¶éœ€æ±‚åˆ†æžæ‰€æä¾›çš„è³‡æ–™, å°±æˆ‘/æˆ‘å€‘æ‰€çŸ¥æ‰€è¨€, å‡ç‚ºäº‹å¯¦ä¹‹å…¨éƒ¨åŠç¢ºå¯¦ç„¡è¨›ã€‚ è²´å…¬å¸å°±ç›¸é—œäººå£«æ‰€æä¾›çš„è³‡æ–™ã€çµæžœæˆ–ç­”æ¡ˆä¹‹æº–ç¢ºæ€§æˆ–å®Œæ•´æ€§æˆ–å› è€Œå°Žè‡´æˆ‘/æˆ‘å€‘æˆ–ä»»ä½•äººå£«/ä¸€æ–¹æœ‰ä»»ä½•æå¤±ä¸¦ä¸è² ä¸Šä»»ä½•è²¬ä»»æˆ–æ³•å¾‹è²¬ä»»ã€‚"
			}],
			"textUnderSignatore": {
				"en": "Signature of Proposed Owner (Applicant) / Owner ([FULLNAME])",
				"zh-Hans": "å»ºè®®æŒæœ‰äºº(ç”³è¯·äºº)/æŒæœ‰äººç­¾ç½² ([FULLNAME])",
				"zh-Hant": "å»ºè­°æŒæœ‰äºº(ç”³è«‹äºº)/æŒæœ‰äººç°½ç½² ([FULLNAME])"
			},
			"title": {
				"en": "DECLARATION \u0026 ACKNOWLEDGEMENT",
				"zh-Hans": "å£°æ˜ŽåŠç¡®è®¤",
				"zh-Hant": "è²æ˜ŽåŠç¢ºèª"
			}
		}
	},
	"summaryTemplate": [{
		"contentId": "finanEval",
		"questionId": "buyProductsObjectives",
		"title": {
			"en": "OBJECTIVES"
		},
		"type": "lineText"
	},
	{
		"contentId": "finanEval",
		"questionId": "interestedProducts",
		"title": {
			"en": "INTERESTED PRODUCTS"
		},
		"type": "lineText"
	},
	{
		"contentId": "finanEval",
		"options": [{
			"questionId": "targetProtectionTimeLength",
			"title": {
				"en": "TARGET PROTECTION PERIOD"
			}
		},
		{
			"questionId": "avgMonthlyIncome",
			"title": {
				"en": "BUDGET (ANNUAL PREMIUM)"
			}
		},
		{
			"questionId": "insurInvestTimeLength",
			"title": {
				"en": "PREFERRED PAYMENT TERM"
			}
		}],
		"title": {
			"en": "AFFORDABILITY"
		},
		"type": "multiItems"
	},
	{
		"contentId": "needsAnal",
		"title": {
			"en": "SHORTFALLS"
		}
	},
	{
		"contentId": "riskAssess",
		"title": {
			"en": "RISK TOLERANCE"
		}
	}],
	"type": "layout"
}