{
    "type": "productConfig",
    "title": "PROD.CONFIG.DESC",
    "items": [
        {
            "id": "ProdDetail",
            "type": "section",
            "title": "Product Detail",
            "items": [
                {
                    "id": "image1111",
                    "detailSeq": 1,
                    "type": "FILEUPLOAD",
                    "subType": "attachment",
                    "allowUpdate": true,
                    "title": "abc"
                },
                {
                    "id": "covCode",
                    "detailSeq": 1,
                    "type": "text",
                    "title": "Product Code",
                    "isKey": true,
                    "allowUpdate": false,
                    "mandatory": true
                },
                {
                    "id": "covName",
                    "detailSeq": 1,
                    "type": "multText",
                    "title": "Product Name",
                    "items": [
                        {
                            "id": "en",
                            "title": "English",
                            "mandatory": true
                        },
                        {
                            "id": "zh-Hant",
                            "title": "中文"
                        }
                    ],
                    "allowUpdate": false,
                    "mandatory": true
                },
                {
                    "type": "hbox",
                    "detailSeq": 1,
                    "presentation": "column2",
                    "items": [
                        {
                            "id": "planInd",
                            "detailSeq": 1,
                            "type": "readOnly",
                            "title": "Plan Type"
                        },
                        {
                            "id": "productLine",
                            "detailSeq": 1,
                            "type": "picker",
                            "title": "Product Line",
                            "optionTable": "V_PROD_LINE",
                            "presentation": "pl_code,name_desc",
                            "options": [
                                {
                                    "value": "life",
                                    "title": "Life Protection"
                                },
                                {
                                    "value": "retire",
                                    "title": "Retire"
                                },
                                {
                                    "value": "medical",
                                    "title": "Medical"
                                }
                            ],
                            "allowUpdate": false,
                            "mandatory": true
                        }
                    ]
                },
                {
                    "id": "keyFeatures",
                    "detailSeq": 1,
                    "type": "multText",
                    "subType": "html",
                    "title": "Key Features",
                    "items": [
                        {
                            "id": "en",
                            "title": "English",
                            "mandatory": true
                        },
                        {
                            "id": "zh-Hant",
                            "title": "中文"
                        }
                    ],
                    "allowUpdate": true
                },
                {
                    "id": "remarks",
                    "detailSeq": 1,
                    "type": "multText",
                    "subType": "html",
                    "title": "Remarks",
                    "items": [
                        {
                            "id": "en",
                            "title": "English",
                            "mandatory": true
                        },
                        {
                            "id": "zh-Hant",
                            "title": "中文"
                        }
                    ],
                    "allowUpdate": true
                },
                {
                    "type": "hbox",
                    "detailSeq": 1,
                    "presentation": "column2",
                    "items": [
                        {
                            "id": "launchDate",
                            "detailSeq": 1,
                            "type": "datePicker",
                            "value": "$today",
                            "title": "Launch Date",
                            "allowUpdate": true,
                            "mandatory": true
                        },
                        {
                            "id": "expiryDate",
                            "detailSeq": 1,
                            "type": "datePicker",
                            "value": "$oneyearlater",
                            "title": "Expiry Date",
                            "allowUpdate": true,
                            "mandatory": true
                        }
                    ]
                }
            ]
        },
        {
            "id": "limit",
            "type": "sectionGroup",
            "title": "Product Limit",
            "items": [
                {
                    "id": "ProdFeatures",
                    "detailSeq": 1,
                    "type": "section",
                    "title": "General",
                    "items": [
                        {
                            "id": "gender",
                            "detailSeq": 1,
                            "type": "checkboxGroup",
                            "title": "Gender",
                            "options": [
                                {
                                    "value": "M",
                                    "title": "Male"
                                },
                                {
                                    "value": "F",
                                    "title": "Female"
                                }
                            ],
                            "mandatory": true
                        },
                        {
                            "id": "smokingHabit",
                            "detailSeq": 1,
                            "type": "checkboxGroup",
                            "title": "Smoking Habit",
                            "options": [
                                {
                                    "value": "S",
                                    "title": "Smoker"
                                },
                                {
                                    "value": "N",
                                    "title": "Non-Smoker"
                                }
                            ],
                            "mandatory": true
                        },
                        {
                            "id": "corpInd",
                            "detailSeq": 1,
                            "type": "checkbox",
                            "title": "Corporate Owner"
                        },
                        {
                            "id": "jointLives",
                            "detailSeq": 1,
                            "type": "checkbox",
                            "title": "Joint Lives"
                        },
                        {
                            "id": "residCountry",
                            "detailSeq": 1,
                            "type": "checkboxGroup",
                            "title": "Country of Residence",
                            "options": [
                                {
                                    "value": "[LOCAL]",
                                    "title": "Local"
                                },
                                {
                                    "value": "[OTHER]",
                                    "title": "Other Country"
                                }
                            ],
                            "mandatory": true
                        },
                        {
                            "id": "licence",
                            "detailSeq": 1,
                            "type": "checkboxGroup",
                            "title": "Licence Required",
                            "options": [
                                {
                                    "value": "p1",
                                    "title": "Paper I"
                                },
                                {
                                    "value": "p2",
                                    "title": "Paper II"
                                },
                                {
                                    "value": "p5",
                                    "title": "Paper V"
                                }
                            ],
                            "mandatory": true
                        },
                        {
                            "id": "channel",
                            "detailSeq": 1,
                            "type": "checkboxGroup",
                            "title": "Channel",
                            "options": [
                                {
                                    "value": "agency",
                                    "title": "Agency"
                                },
                                {
                                    "value": "broker",
                                    "title": "Broker"
                                },
                                {
                                    "value": "bank",
                                    "title": "Bank Assurance"
                                },
                                {
                                    "value": "direct",
                                    "title": "Direct"
                                }
                            ],
                            "mandatory": true
                        }
                    ]
                },
                {
                    "id": "entryAge",
                    "detailSeq": 1,
                    "type": "section",
                    "title": "Entry Age",
                    "items": [
                        {
                            "id": "insuredAgeDesc",
                            "detailSeq": 1,
                            "type": "multText",
                            "title": "Age Description",
                            "items": [
                                {
                                    "id": "en",
                                    "title": "English",
                                    "mandatory": true
                                },
                                {
                                    "id": "zh-Hant",
                                    "title": "中文"
                                }
                            ]
                        },
                        {
                            "id": "agesLimit",
                            "detailSeq": 1,
                            "type": "table",
                            "items": [
                                {
                                    "id": "residCty",
                                    "title": "Country of Residence",
                                    "type": "column",
                                    "items": [
                                        {
                                            "id": "country",
                                            "type": "rowKey",
                                            "reference": "ProdFeatures/residCountry",
                                            "options": [
                                                {
                                                    "value": "[LOCAL]",
                                                    "title": "Local"
                                                },
                                                {
                                                    "value": "CHN",
                                                    "title": "China"
                                                },
                                                {
                                                    "value": "[OTHER]",
                                                    "title": "Other Country"
                                                }
                                            ]
                                        }
                                    ]
                                },
                                {
                                    "type": "columnGroup",
                                    "title": "Insured",
                                    "items": [
                                        {
                                            "type": "column",
                                            "title": "Minimum Age",
                                            "items": [
                                                {
                                                    "id": "iminAge",
                                                    "detailSeq": 1,
                                                    "type": "text",
                                                    "subType": "number"
                                                },
                                                {
                                                    "id": "iminAgeUnit",
                                                    "detailSeq": 1,
                                                    "type": "picker",
                                                    "options": [
                                                        {
                                                            "value": "day",
                                                            "title": "Day"
                                                        },
                                                        {
                                                            "value": "year",
                                                            "title": "Year"
                                                        }
                                                    ]
                                                }
                                            ]
                                        },
                                        {
                                            "type": "column",
                                            "title": "Maximum Age",
                                            "items": [
                                                {
                                                    "id": "imaxAge",
                                                    "detailSeq": 1,
                                                    "type": "text",
                                                    "subType": "number"
                                                },
                                                {
                                                    "id": "imaxAgeUnit",
                                                    "detailSeq": 1,
                                                    "type": "picker",
                                                    "options": [
                                                        {
                                                            "value": "day",
                                                            "title": "Day"
                                                        },
                                                        {
                                                            "value": "year",
                                                            "title": "Year"
                                                        }
                                                    ]
                                                }
                                            ]
                                        },
                                        {
                                            "type": "column",
                                            "title": "Same as Owner",
                                            "items": [
                                                {
                                                    "id": "sameAsOwner",
                                                    "detailSeq": 1,
                                                    "type": "checkbox"
                                                }
                                            ]
                                        }
                                    ]
                                },
                                {
                                    "type": "columnGroup",
                                    "title": "Owner",
                                    "items": [
                                        {
                                            "type": "column",
                                            "title": "Minimum Age",
                                            "trigger": [
                                                {
                                                    "type": "disableIfEqual",
                                                    "id": "sameAsOwner",
                                                    "value": "Y"
                                                }
                                            ],
                                            "items": [
                                                {
                                                    "id": "ominAge",
                                                    "detailSeq": 1,
                                                    "type": "text",
                                                    "subType": "number",
                                                    "trigger": [
                                                        {
                                                            "type": "valueOverride",
                                                            "id": "sameAsOwner=Y",
                                                            "reference": "iminAge"
                                                        }
                                                    ]
                                                },
                                                {
                                                    "id": "ominAgeUnit",
                                                    "detailSeq": 1,
                                                    "type": "picker",
                                                    "options": [
                                                        {
                                                            "value": "day",
                                                            "title": "Day"
                                                        },
                                                        {
                                                            "value": "year",
                                                            "title": "Year"
                                                        }
                                                    ],
                                                    "trigger": [
                                                        {
                                                            "type": "valueOverride",
                                                            "id": "sameAsOwner=Y",
                                                            "reference": "iminAgeUnit"
                                                        }
                                                    ]
                                                }
                                            ]
                                        },
                                        {
                                            "type": "column",
                                            "title": "Maximum Age",
                                            "trigger": [
                                                {
                                                    "type": "disableIfEqual",
                                                    "id": "sameAsOwner",
                                                    "value": "Y"
                                                }
                                            ],
                                            "items": [
                                                {
                                                    "id": "omaxAge",
                                                    "detailSeq": 1,
                                                    "type": "text",
                                                    "subType": "number",
                                                    "trigger": [
                                                        {
                                                            "type": "valueOverride",
                                                            "id": "sameAsOwner=Y",
                                                            "reference": "imaxAge"
                                                        }
                                                    ]
                                                },
                                                {
                                                    "id": "omaxAgeUnit",
                                                    "detailSeq": 1,
                                                    "type": "picker",
                                                    "options": [
                                                        {
                                                            "value": "day",
                                                            "title": "Day"
                                                        },
                                                        {
                                                            "value": "year",
                                                            "title": "Year"
                                                        }
                                                    ],
                                                    "trigger": [
                                                        {
                                                            "type": "valueOverride",
                                                            "id": "sameAsOwner=Y",
                                                            "reference": "imaxAgeUnit"
                                                        }
                                                    ]
                                                }
                                            ]
                                        }
                                    ]
                                }
                            ]
                        }
                    ]
                },
                {
                    "id": "policyMaturity",
                    "detailSeq": 1,
                    "type": "section",
                    "title": "Policy Maturity",
                    "items": [
                        {
                            "id": "policyMaturityDesc",
                            "detailSeq": 1,
                            "type": "multText",
                            "title": "Policy Team Description",
                            "items": [
                                {
                                    "id": "en",
                                    "title": "English",
                                    "mandatory": true
                                },
                                {
                                    "id": "zh-Hant",
                                    "title": "中文"
                                }
                            ]
                        },
                        {
                            "detailSeq": 1,
                            "type": "hbox",
                            "presentation": "column2",
                            "items": [
                                {
                                    "id": "polTermSameAsBasic",
                                    "detailSeq": 1,
                                    "type": "checkbox",
                                    "title": "Same as Basic Plan",
                                    "trigger": [
                                        {
                                            "type": "disableIfEqual",
                                            "id": "ProdDetail/planType",
                                            "value": "B"
                                        }
                                    ]
                                },
                                {
                                    "id": "wholeLifeInd",
                                    "detailSeq": 1,
                                    "type": "checkbox",
                                    "title": "Whole Life",
                                    "trigger": [
                                        {
                                            "type": "disableIfEqual",
                                            "id": "polTermSameAsBasic",
                                            "value": "Y"
                                        }
                                    ]
                                }
                            ]
                        },
                        {
                            "id": "maturityLimit",
                            "detailSeq": 1,
                            "type": "table",
                            "trigger": [
                                {
                                    "type": "hideIfEqual",
                                    "id": "polTermSameAsBasic",
                                    "value": "Y"
                                },
                                {
                                    "type": "hideIfEqual",
                                    "id": "wholeLifeInd",
                                    "value": "Y"
                                }
                            ],
                            "items": [
                                {
                                    "id": "residCty",
                                    "title": "Country of Residence",
                                    "type": "column",
                                    "items": [
                                        {
                                            "id": "country",
                                            "type": "rowKey",
                                            "reference": "ProdFeatures/residCountry",
                                            "options": [
                                                {
                                                    "value": "[LOCAL]",
                                                    "title": "Local"
                                                },
                                                {
                                                    "value": "CHN",
                                                    "title": "China"
                                                },
                                                {
                                                    "value": "[OTHER]",
                                                    "title": "Other Country"
                                                }
                                            ]
                                        }
                                    ]
                                },
                                {
                                    "type": "columnGroup",
                                    "title": "Insured",
                                    "items": [
                                        {
                                            "type": "column",
                                            "title": "Policy Term Limit",
                                            "items": [
                                                {
                                                    "id": "insPolicyTermLt",
                                                    "detailSeq": 1,
                                                    "type": "text",
                                                    "subType": "number"
                                                },
                                                {
                                                    "id": "insPolicyTermLtUnit",
                                                    "detailSeq": 1,
                                                    "type": "picker",
                                                    "options": [
                                                        {
                                                            "value": "term",
                                                            "title": "Term(s)"
                                                        },
                                                        {
                                                            "value": "age",
                                                            "title": "Age"
                                                        }
                                                    ]
                                                }
                                            ]
                                        },
                                        {
                                            "type": "column",
                                            "title": "Same as Owner",
                                            "items": [
                                                {
                                                    "id": "sameAsOwner",
                                                    "detailSeq": 1,
                                                    "type": "checkbox"
                                                }
                                            ]
                                        }
                                    ]
                                },
                                {
                                    "type": "columnGroup",
                                    "title": "Owner",
                                    "items": [
                                        {
                                            "type": "column",
                                            "title": "Policy Term Limit",
                                            "trigger": [
                                                {
                                                    "type": "disableIfEqual",
                                                    "id": "sameAsOwner",
                                                    "value": "Y"
                                                }
                                            ],
                                            "items": [
                                                {
                                                    "id": "ownPolicyTermLt",
                                                    "detailSeq": 1,
                                                    "type": "text",
                                                    "subType": "number",
                                                    "trigger": [
                                                        {
                                                            "type": "valueOverride",
                                                            "id": "sameAsOwner=Y",
                                                            "reference": "insPolicyTermLt"
                                                        }
                                                    ]
                                                },
                                                {
                                                    "id": "ownPolicyTermLtUnit",
                                                    "detailSeq": 1,
                                                    "type": "picker",
                                                    "options": [
                                                        {
                                                            "value": "term",
                                                            "title": "Term(s)"
                                                        },
                                                        {
                                                            "value": "age",
                                                            "title": "Age"
                                                        }
                                                    ],
                                                    "trigger": [
                                                        {
                                                            "type": "valueOverride",
                                                            "id": "sameAsOwner=Y",
                                                            "reference": "insPolicyTermLtUnit"
                                                        }
                                                    ]
                                                }
                                            ]
                                        }
                                    ]
                                }
                            ]
                        }
                    ]
                },
                {
                    "id": "premiumMaturity",
                    "detailSeq": 1,
                    "type": "section",
                    "title": "Premium Maturity",
                    "items": [
                        {
                            "id": "premiumMaturityDesc",
                            "detailSeq": 1,
                            "type": "multText",
                            "title": "Premium Term Description",
                            "items": [
                                {
                                    "id": "en",
                                    "title": "English",
                                    "mandatory": true
                                },
                                {
                                    "id": "zh-Hant",
                                    "title": "中文"
                                }
                            ]
                        },
                        {
                            "detailSeq": 1,
                            "type": "hbox",
                            "presentation": "column2",
                            "items": [
                                {
                                    "id": "premTermSameAsBasic",
                                    "detailSeq": 1,
                                    "type": "checkbox",
                                    "title": "Same as Basic Plan",
                                    "trigger": [
                                        {
                                            "type": "disableIfEqual",
                                            "id": "ProdDetail/planType",
                                            "value": "B"
                                        }
                                    ]
                                },
                                {
                                    "id": "sameAsPolicyTerm",
                                    "detailSeq": 1,
                                    "type": "checkbox",
                                    "title": "Same as Policy Term"
                                },
                                {
                                    "id": "flexPremTerm",
                                    "detailSeq": 1,
                                    "type": "checkbox",
                                    "title": "Flexible Premium Term"
                                }
                            ]
                        },
                        {
                            "id": "premTeamLimit",
                            "detailSeq": 1,
                            "type": "table",
                            "trigger": [
                                {
                                    "type": "hideIfEqual",
                                    "id": "premTermSameAsBasic",
                                    "value": "Y"
                                },
                                {
                                    "type": "hideIfEqual",
                                    "id": "sameAsPolicyTerm",
                                    "value": "Y"
                                }
                            ],
                            "items": [
                                {
                                    "id": "residCty",
                                    "title": "Country of Residence",
                                    "type": "column",
                                    "items": [
                                        {
                                            "id": "country",
                                            "type": "rowKey",
                                            "reference": "ProdFeatures/residCountry",
                                            "options": [
                                                {
                                                    "value": "[LOCAL]",
                                                    "title": "Local"
                                                },
                                                {
                                                    "value": "CHN",
                                                    "title": "China"
                                                },
                                                {
                                                    "value": "[OTHER]",
                                                    "title": "Other Country"
                                                }
                                            ]
                                        }
                                    ]
                                },
                                {
                                    "type": "columnGroup",
                                    "title": "Insured",
                                    "items": [
                                        {
                                            "type": "column",
                                            "title": "Premium Team Limit",
                                            "items": [
                                                {
                                                    "id": "insPremTermLt",
                                                    "detailSeq": 1,
                                                    "type": "text",
                                                    "subType": "number"
                                                },
                                                {
                                                    "id": "insPremTermLtUnit",
                                                    "detailSeq": 1,
                                                    "type": "picker",
                                                    "options": [
                                                        {
                                                            "value": "term",
                                                            "title": "Term(s)"
                                                        },
                                                        {
                                                            "value": "age",
                                                            "title": "Age"
                                                        }
                                                    ]
                                                }
                                            ]
                                        },
                                        {
                                            "type": "column",
                                            "title": "Same as Owner",
                                            "items": [
                                                {
                                                    "id": "sameAsOwner",
                                                    "detailSeq": 1,
                                                    "type": "checkbox"
                                                }
                                            ]
                                        }
                                    ]
                                },
                                {
                                    "type": "columnGroup",
                                    "title": "Owner",
                                    "items": [
                                        {
                                            "type": "column",
                                            "title": "Premium Team Limit",
                                            "trigger": [
                                                {
                                                    "type": "disableIfEqual",
                                                    "id": "sameAsOwner",
                                                    "value": "Y"
                                                }
                                            ],
                                            "items": [
                                                {
                                                    "id": "ownPremTermLt",
                                                    "detailSeq": 1,
                                                    "type": "text",
                                                    "subType": "number",
                                                    "trigger": [
                                                        {
                                                            "type": "valueOverride",
                                                            "id": "sameAsOwner=Y",
                                                            "reference": "insPremTermLt"
                                                        }
                                                    ]
                                                },
                                                {
                                                    "id": "ownPremTermLtUnit",
                                                    "detailSeq": 1,
                                                    "type": "picker",
                                                    "options": [
                                                        {
                                                            "value": "term",
                                                            "title": "Term(s)"
                                                        },
                                                        {
                                                            "value": "age",
                                                            "title": "Age"
                                                        }
                                                    ],
                                                    "trigger": [
                                                        {
                                                            "type": "valueOverride",
                                                            "id": "sameAsOwner=Y",
                                                            "reference": "insPremTermLtUnit"
                                                        }
                                                    ]
                                                }
                                            ]
                                        }
                                    ]
                                }
                            ]
                        }
                    ]
                }
            ]
        }
    ]
}